Name,Code,Barcode Symbology,Brand,Category Code,Cost,Price,Alert Quantity, Tax Rate Name,Tax Method,Image,Subcategory Code,Product Variants Separated by |,Custom Field 1,Custom Field 2,Custom Field 3,Custom Field 4,Custom Field 5,Custom Field 6,featured,status,free_shipment,Product Details
OAK/DS,3590001,code128,ENSO,101, 82.89 ,495,2,VAT @5%,exclusive,,107,White / SK-K|Charcoal / SK-K|,OAK/WT/DS/SK-K,,,,,,0,1,0,PRODUCT DETAIL 1
OAK/DS,3590002,code128,ENSO,101, 69.63 ,420,2,VAT @5%,exclusive,,107,White / LARGE|Charcoal / SK-K|,OAK/WT/DS/Q-F,,,,,,0,1,0,PRODUCT DETAIL 2
