"Product Code","Product Name",Variant,Expected,Counted
100001,OAK/DS,"Charcoal / SK-K",8.0000,
100001,OAK/DS,"Charcoal / Q-F",8.0000,
100001,OAK/DS,"Charcoal / S",3.0000,
100002,OAK/SS,"Charcoal / SK",4.0000,
100002,OAK/SS,"Charcoal / K",4.0000,
100002,OAK/SS,"Charcoal / Q",3.0000,
100002,OAK/SS,"Charcoal / F",3.0000,
100002,OAK/SS,"Charcoal / S",3.0000,
100003,OAK/DC,"Charcoal / SK-K",4.0000,
100003,OAK/DC,"Charcoal / Q-F",4.0000,
100003,OAK/DC,"Charcoal / S",3.0000,
100004,OAK/TS,"Charcoal / SK-K",4.0000,
100004,OAK/TS,"Charcoal / Q-F",4.0000,
100004,OAK/TS,"Charcoal / S",1.0000,
100005,OAK/FS,"Charcoal / SK",2.0000,
100005,OAK/FS,"Charcoal / K",2.0000,
100005,OAK/FS,"Charcoal / Q",3.0000,
100005,OAK/FS,"Charcoal / F",3.0000,
100005,OAK/FS,"Charcoal / S",3.0000,
100006,OAK/OPC,"Charcoal / ",19.0000,
100007,OAK/UPC,"Charcoal / K",23.0000,
100008,ASH/DS,"Charcoal / SK-K",7.0000,
100008,ASH/DS,"White / SK-K",8.0000,
100008,ASH/DS,"White / Q-F",6.0000,
100008,ASH/DS,"Charcoal / Q-F",6.0000,
100009,ASH/SS,"White / SK",4.0000,
100009,ASH/SS,"White / K",4.0000,
100009,ASH/SS,"White / Q",3.0000,
100009,ASH/SS,"White / F",3.0000,
100009,ASH/SS,"Charcoal / SK",4.0000,
100009,ASH/SS,"Charcoal / K",4.0000,
100009,ASH/SS,"Charcoal / Q",3.0000,
100009,ASH/SS,"Charcoal / F",3.0000,
100010,ASH/DC,"White / SK-K",4.0000,
100010,ASH/DC,"White / Q-F",4.0000,
100010,ASH/DC,"Charcoal / SK-K",3.0000,
100010,ASH/DC,"Charcoal / Q-F",3.0000,
100011,ASH/TS,"White / SK-K",5.0000,
100011,ASH/TS,"Charcoal / SK-K",4.0000,
100011,ASH/TS,"White / Q-F",3.0000,
100011,ASH/TS,"Charcoal / Q-F",2.0000,
100012,ASH/FS,"White / SK",2.0000,
100012,ASH/FS,"White / K",2.0000,
100012,ASH/FS,"White / Q",3.0000,
100012,ASH/FS,"White / F",2.0000,
100012,ASH/FS,"Charcoal / SK",2.0000,
100012,ASH/FS,"Charcoal / K",2.0000,
100012,ASH/FS,"Charcoal / Q",3.0000,
100013,ASH/OPC,"White / K",22.0000,
100013,ASH/OPC,"Charcoal / K",22.0000,
100014,ASH/UPC,"White / K",26.0000,
100014,ASH/UPC,"Charcoal / K",22.0000,
100015,TUPELO/DS,"Charcoal/White / SK-K",6.0000,
100015,TUPELO/DS,"Charcoal/White / Q-F",8.0000,
100015,TUPELO/DS,"Charcoal/White / S",4.0000,
100016,TUPELO/SS,"Charcoal/White / SK",3.0000,
100016,TUPELO/SS,"Charcoal/White / K",3.0000,
100016,TUPELO/SS,"Charcoal/White / Q",4.0000,
100016,TUPELO/SS,"Charcoal/White / F",4.0000,
100016,TUPELO/SS,"Charcoal/White / S",4.0000,
100017,TUPELO/DC,"Charcoal/White / SK-K",4.0000,
100017,TUPELO/DC,"Charcoal/White / Q-F",4.0000,
100017,TUPELO/DC,"Charcoal/White / S",4.0000,
100018,TUPELO/TS,"Charcoal/White / SK-K",3.0000,
100018,TUPELO/TS,"Charcoal/White / Q-F",2.0000,
100018,TUPELO/TS,"Charcoal/White / S",2.0000,
100019,TUPELO/FS,"Charcoal/White / SK",3.0000,
100019,TUPELO/FS,"Charcoal/White / K",3.0000,
100019,TUPELO/FS,"Charcoal/White / Q",4.0000,
100019,TUPELO/FS,"Charcoal/White / F",2.0000,
100019,TUPELO/FS,"Charcoal/White / S",4.0000,
100020,TUPELO/OPC,"Charcoal/White / K",28.0000,
100021,TUPELO/UPC,"Charcoal/White / K",28.0000,
100022,ROBLE/DS,"Charcoal / Q-F",8.0000,
100022,ROBLE/DS,"White / Q-F",8.0000,
100022,ROBLE/DS,"Charcoal / SK-K",8.0000,
100022,ROBLE/DS,"White / SK-K",8.0000,
100022,ROBLE/DS,"White / S",5.0000,
100022,ROBLE/DS,"Charcoal / S",5.0000,
100023,ROBLE/SS,"White / SK",4.0000,
100023,ROBLE/SS,"Charcoal / SK",4.0000,
100023,ROBLE/SS,"White / K",4.0000,
100023,ROBLE/SS,"Charcoal / K",4.0000,
100023,ROBLE/SS,"White / Q",4.0000,
100023,ROBLE/SS,"Charcoal / Q",4.0000,
100023,ROBLE/SS,"White / F",4.0000,
100023,ROBLE/SS,"Charcoal / F",4.0000,
100023,ROBLE/SS,"White / S",5.0000,
100023,ROBLE/SS,"Charcoal / S",5.0000,
100024,ROBLE/DC,"Charcoal / Q-F",1.0000,
100024,ROBLE/DC,"White / Q-F",2.0000,
100024,ROBLE/DC,"Charcoal / SK-K",4.0000,
100024,ROBLE/DC,"White / SK-K",4.0000,
100024,ROBLE/DC,"White / S",3.0000,
100024,ROBLE/DC,"Charcoal / S",3.0000,
100025,ROBLE/FS,"White / S",3.0000,
100025,ROBLE/FS,"White / Q",2.0000,
100025,ROBLE/FS,"White / K",2.0000,
100025,ROBLE/FS,"White / SK",2.0000,
100025,ROBLE/FS,"Charcoal / S",1.0000,
100025,ROBLE/FS,"Charcoal / SK",2.0000,
100026,ROBLE/OPC,"White / K",14.0000,
100026,ROBLE/OPC,"Charcoal / K",11.0000,
100027,ROBLE/UPC,"Charcoal / K",11.0000,
100027,ROBLE/UPC,"White / K",10.0000,
100028,ARGAN/DS,"White / SK",2.0000,
100028,ARGAN/DS,"Charcoal / S",1.0000,
100028,ARGAN/DS,"Charcoal / Q-F",6.0000,
100028,ARGAN/DS,"White / Q-F",6.0000,
100028,ARGAN/DS,"Charcoal / K",4.0000,
100028,ARGAN/DS,"White / K",4.0000,
100028,ARGAN/DS,"Charcoal / SK",4.0000,
100028,ARGAN/DS,"White / S",2.0000,
100029,ARGAN/SS,"White / SK",4.0000,
100029,ARGAN/SS,"Charcoal / SK",4.0000,
100029,ARGAN/SS,"White / K",4.0000,
100029,ARGAN/SS,"Charcoal / K",4.0000,
100029,ARGAN/SS,"White / Q",3.0000,
100029,ARGAN/SS,"Charcoal / Q",3.0000,
100029,ARGAN/SS,"White / F",3.0000,
100029,ARGAN/SS,"Charcoal / F",3.0000,
100029,ARGAN/SS,"White / S",2.0000,
100029,ARGAN/SS,"Charcoal / S",2.0000,
100030,ARGAN/DC,"White / SK-K",-1.0000,
100030,ARGAN/DC,"Charcoal / SK-K",2.0000,
100030,ARGAN/DC,"White / Q-F",2.0000,
100030,ARGAN/DC,"Charcoal / Q-F",2.0000,
100031,ARGAN/TS,"White / SK-K",2.0000,
100031,ARGAN/TS,"Charcoal / SK-K",4.0000,
100031,ARGAN/TS,"White / Q-F",4.0000,
100031,ARGAN/TS,"Charcoal / Q-F",4.0000,
100031,ARGAN/TS,"Charcoal / S",2.0000,
100032,ARGAN/FS,"White / SK",1.0000,
100032,ARGAN/FS,"Charcoal / SK",1.0000,
100032,ARGAN/FS,"Charcoal / K",1.0000,
100032,ARGAN/FS,"White / Q",2.0000,
100032,ARGAN/FS,"Charcoal / Q",2.0000,
100032,ARGAN/FS,"Charcoal / S",2.0000,
100033,ARGAN/OPC,"White / SK",6.0000,
100033,ARGAN/OPC,"White / K",8.0000,
100033,ARGAN/OPC,"Charcoal / SK",6.0000,
100033,ARGAN/OPC,"Charcoal / K",8.0000,
100034,ARGAN/UPC,"White / SK-K",4.0000,
100034,ARGAN/UPC,"Charcoal / SK-K",6.0000,
100034,ARGAN/UPC,"White / K",10.0000,
100034,ARGAN/UPC,"Charcoal / K",7.0000,
100035,CEDRO/DS,"White / SK",4.0000,
100035,CEDRO/DS,"White / K",4.0000,
100035,CEDRO/DS,"White / Q-F",5.0000,
100036,CEDRO/SS,"White / SK",4.0000,
100036,CEDRO/SS,"White / K",4.0000,
100036,CEDRO/SS,"White / Q",5.0000,
100037,CEDRO/DC,"White / SK-K",2.0000,
100037,CEDRO/DC,"White / Q-F",3.0000,
100038,CEDRO/TS,"White / SK-K",2.0000,
100038,CEDRO/TS,"White / Q-F",3.0000,
100039,CEDRO/FS,"White / SK",1.0000,
100039,CEDRO/FS,"White / K",1.0000,
100039,CEDRO/FS,"White / Q",3.0000,
100040,CEDRO/OPC,"White / SK",4.0000,
100040,CEDRO/OPC,"White / K",12.0000,
100041,CEDRO/UPC,"White / SK",4.0000,
100041,CEDRO/UPC,"White / K",10.0000,
100042,OLIVE/DS,"White / SK",3.0000,
100042,OLIVE/DS,"Charcoal / SK",3.0000,
100042,OLIVE/DS,"White / K",2.0000,
100042,OLIVE/DS,"Charcoal / K",2.0000,
100042,OLIVE/DS,"White / Q-F",3.0000,
100042,OLIVE/DS,"Charcoal / Q-F",3.0000,
100043,OLIVE/SS,"White / SK",3.0000,
100043,OLIVE/SS,"Charcoal / SK",3.0000,
100043,OLIVE/SS,"White / K",2.0000,
100043,OLIVE/SS,"Charcoal / K",2.0000,
100043,OLIVE/SS,"White / Q",3.0000,
100043,OLIVE/SS,"Charcoal / Q",3.0000,
100044,OLIVE/DC,"White / SK-K",4.0000,
100044,OLIVE/DC,"Charcoal / SK-K",4.0000,
100044,OLIVE/DC,"White / Q-F",1.0000,
100044,OLIVE/DC,"Charcoal / Q-F",1.0000,
100045,OLIVE/TS,"White / SK-K",4.0000,
100045,OLIVE/TS,"Charcoal / SK-K",4.0000,
100045,OLIVE/TS,"White / Q-F",1.0000,
100045,OLIVE/TS,"Charcoal / Q-F",1.0000,
100046,OLIVE/FS,"White / SK",2.0000,
100046,OLIVE/FS,"Charcoal / SK",2.0000,
100046,OLIVE/FS,"White / K",2.0000,
100046,OLIVE/FS,"Charcoal / K",2.0000,
100046,OLIVE/FS,"White / Q",1.0000,
100046,OLIVE/FS,"Charcoal / Q",1.0000,
100047,OLIVE/OPC,"White / SK",6.0000,
100047,OLIVE/OPC,"Charcoal/White / SK",6.0000,
100047,OLIVE/OPC,"White / K",8.0000,
100047,OLIVE/OPC,"Charcoal/White / K",8.0000,
100048,OLIVE/UPC,"White / SK",6.0000,
100048,OLIVE/UPC,"Charcoal / SK",6.0000,
100048,OLIVE/UPC,"White / K",8.0000,
100048,OLIVE/UPC,"Charcoal / K",8.0000,
100049,BONSAI/DS,"White / SK",3.0000,
100049,BONSAI/DS,"White / K",2.0000,
100049,BONSAI/DS,"White / Q-F",3.0000,
100050,BONSAI/SS,"White / SK",3.0000,
100050,BONSAI/SS,"White / K",2.0000,
100050,BONSAI/SS,"White / Q",3.0000,
100051,BONSAI/DC,"White / SK-K",3.0000,
100051,BONSAI/DC,"White / Q-F",1.0000,
100052,BONSAI/TS,"White / SK-K",4.0000,
100052,BONSAI/TS,"White / Q-F",1.0000,
100053,BONSAI/FS,"White / SK",2.0000,
100053,BONSAI/FS,"White / K",2.0000,
100053,BONSAI/FS,"White / Q",1.0000,
100054,BONSAI/OPC,"White / SK",6.0000,
100054,BONSAI/OPC,"White / K",8.0000,
100055,BONSAI/UPC,"White / SK",6.0000,
100055,BONSAI/UPC,"White / K",8.0000,
100056,WILLOW/DS,"White / SK-K",8.0000,
100057,WILLOW/SS,"White / SK",4.0000,
100057,WILLOW/SS,"White / K",4.0000,
100058,WILLOW/DC,"White / SK-K",4.0000,
100059,WILLOW/TS,"White / SK-K",4.0000,
100060,WILLOW/FS,"White / SK",2.0000,
100060,WILLOW/FS,"White / K",2.0000,
100061,WILLOW/OPC,"White / SK",8.0000,
100062,WILLOW/UPC,"White / SK",8.0000,
100063,TUSA/TOWEL-SET,,0.0000,
100064,TUSA/BATH-SET,,0.0000,
100065,TUSA/BT,,0.0000,
100066,TUSA/HT,,0.0000,
100067,TUSA/FT,,0.0000,
100068,TUSA/BM,,0.0000,
100069,KENAF/TOWEL-SET,,0.0000,
100070,KENAF/BAT-SET,Charcoal/Rd,-1.0000,
100071,KENAF/BT,,0.0000,
100072,KENAF/HT,,0.0000,
100073,KENAF/FT,"White/RB / 30 cm x 30 cm",-1.0000,
100074,KENAF/BM,,0.0000,
100075,OSO/BR,"Charcoal / Small",-1.0000,
100075,OSO/BR,"Charcoal / Medium",-1.0000,
100076,NUBE/BR,"Charcoal / Large",-2.0000,
100077,TCS/EMB/COT-LIN,"White / Large",5.0000,
100077,TCS/EMB/COT-LIN,"White / Medium",10.0000,
100077,TCS/EMB/COT-LIN,"White / Small",5.0000,
100078,TCS/HS/COT-LIN,"White / Large",5.0000,
100078,TCS/HS/COT-LIN,"White / Medium",10.0000,
100078,TCS/HS/COT-LIN,"White / Small",5.0000,
100079,TC/COT-LIN,"White / Large",10.0000,
100079,TC/COT-LIN,"White / Medium",20.0000,
100079,TC/COT-LIN,"White / Small",10.0000,
100080,NAPKIN/EMB/CONT-LIN,"White / 50 cm x 48 cm",120.0000,
100081,NAPKIN/HS/COT-LIN,"White / 50 cm x 48 cm",120.0000,
100082,NAPKIN/STAR/COT-LIN,"White / 40 cm x 40 cm",20.0000,
100083,TM/COT-LIN,"White / 38 cm x 48 cm",120.0000,
100083,TM/COT-LIN,"Grey / 38 cm x 48 cm",120.0000,
100084,T300/CLUDIA/CUSHION,"White / 51 cm x 51 cm",24.0000,
100085,BBC/COT-LIN,,0.0000,
100086,BBC/FAN/COT-LIN,,0.0000,
100087,T-BAG/COT-LIN,,0.0000,
100088,NAPKIN/HS2/COT-LIN,"Grey / 50 cm x 48 cm",40.0000,
100089,RN/HS2/COT-LIN,,0.0000,
100090,TM/HS2/COT-LIN,,0.0000,
100091,FAB/TULIP,,0.0000,
100095,CAND/SOY/PEPP,Free,3.0000,
100096,CAND/SOY/SAND,Free,3.0000,
100097,CAND/SOY/BAMP,Free,3.0000,
100098,DISH/KURO,Small,6.0000,
100099,BOWL/KURO,"Black / Small",4.0000,
100099,BOWL/KURO,"Black/White / Small",4.0000,
100100,DISH/MOSS,Tiny,4.0000,
100101,BOWL/MOSS,,4.0000,
100102,CUP/MOSS,,4.0000,
100103,POT/MAC-DOT,Tiny,3.0000,
100104,SPOON/MAC-DOT,Tiny,3.0000,
100105,PLAYA/SL-D/100%LINO,,0.0000,
100106,HIPPIE-PANT/100%LINO,,0.0000,
100107,TATI/SL-S/100%LINO,,0.0000,
100108,MIMI/100%LINO,,0.0000,
100109,SHIRT/S-L/100%LINO,,0.0000,
100110,YUYI/HIPPIE-TOP/100%LINO,,0.0000,
100111,PEPA/100%LINO,,0.0000,
99971057,"dummy test","Large / Charcoal",0.0000,
