Name,Code,Barcode Symbology,Brand,Category Code,Cost,Price,Alert Quantity, Tax Rate Name,Tax Method,Image,Subcategory Code,Product Variants Separated by |,Custom Field 1,Custom Field 2,Custom Field 3,Custom Field 4,Custom Field 5,Custom Field 6,featured,status,free_shipment,Product Details
OAK/WT/DS/SK-K,3530001,code128,ENSO,101,85,495,2,VAT @5%,exclusive,,107,Duvet Set|SK-K|T200 Plain White|-One Duvet Cover 260 cm x 230 cm -Two Oxfor Pillow Case 50 cm x 75cm,OAK/WT/DS/SK-K,,,,,,0,1,0,Duvet Set SK-K T200 Plain White -One Duvet Cover 260 cm x 230 cm -Two Oxfor Pillow Case 50 cm x 75cm
OAK/WT/DS/Q-F,3530002,code128,ENSO,101,70,420,2,VAT @5%,exclusive,,107,Duvet Set|Q-F|T200 Plain White|-One Duvet Cover 260 cm x 230 cm -Two Oxfor Pillow Case 50 cm x 75cm,OAK/WT/DS/Q-F,,,,,,0,1,0,Duvet Set Q-F T200 Plain White -One Duvet Cover 260 cm x 230 cm -Two Oxfor Pillow Case 50 cm x 75cm
OAK/WT/DS/S,3530003,code128,ENSO,101,55,295,2,VAT @5%,exclusive,,107,Duvet Set|S|T200 Plain White|-One Duvet Cover 160 cm x 230 cm -One Oxfor Pillow Case 50 cm x 75cm,OAK/WT/DS/S,,,,,,0,1,0,Duvet Set S T200 Plain White -One Duvet Cover 160 cm x 230 cm -One Oxfor Pillow Case 50 cm x 75cm
OAK/WT/SS/SK,3530004,code128,ENSO,101,90,540,2,VAT @5%,exclusive,,107,Sheet Set|SK|T200 Plain White|-One Fitted Sheet 180 cm x 200 cm -One Top Sheet 270 cm x 290 cm -Two US Pillow Case 50 cm x 75cm,OAK/WT/SS/SK,,,,,,0,1,0,Sheet Set SK T200 Plain White -One Fitted Sheet 180 cm x 200 cm -One Top Sheet 270 cm x 290 cm -Two US Pillow Case 50 cm x 75cm
OAK/WT/SS/K,3530005,code128,ENSO,101,90,525,2,VAT @5%,exclusive,,107,Sheet Set|K|T200 Plain White|-One Fitted Sheet 180 cm x 200 cm -One Top Sheet 270 cm x 290 cm -Two US Pillow Case 50 cm x 75cm,OAK/WT/SS/K,,,,,,0,1,0,Sheet Set K T200 Plain White -One Fitted Sheet 180 cm x 200 cm -One Top Sheet 270 cm x 290 cm -Two US Pillow Case 50 cm x 75cm
OAK/WT/SS/Q,3530006,code128,ENSO,101,75,465,2,VAT @5%,exclusive,,107,Sheet Set|Q|T200 Plain White|-One Fitted Sheet 180 cm x 200 cm -One Top Sheet 270 cm x 290 cm -Two US Pillow Case 50 cm x 75cm,OAK/WT/SS/Q,,,,,,0,1,0,Sheet Set Q T200 Plain White -One Fitted Sheet 180 cm x 200 cm -One Top Sheet 270 cm x 290 cm -Two US Pillow Case 50 cm x 75cm
OAK/WT/SS/F,3530007,code128,ENSO,101,75,450,2,VAT @5%,exclusive,,107,Sheet Set|F|T200 Plain White|-One Fitted Sheet 180 cm x 200 cm -One Top Sheet 270 cm x 290 cm -Two US Pillow Case 50 cm x 75cm,OAK/WT/SS/F,,,,,,0,1,0,Sheet Set F T200 Plain White -One Fitted Sheet 180 cm x 200 cm -One Top Sheet 270 cm x 290 cm -Two US Pillow Case 50 cm x 75cm
OAK/WT/SS/S,3530008,code128,ENSO,101,55,330,2,VAT @5%,exclusive,,107,Sheet Set|S|T200 Plain White|-One Fitted Sheet 100 cm x 200 cm -One Top Sheet -One US Pillow Case 50 cm x 75cm,OAK/WT/SS/S,,,,,,0,1,0,Sheet Set S T200 Plain White -One Fitted Sheet 100 cm x 200 cm -One Top Sheet -One US Pillow Case 50 cm x 75cm
OAK/WT/DC/SK-K,3530009,code128,ENSO,101,65,470,2,VAT @5%,exclusive,,102,Duvet Cover|SK-K|T200 Plain White|260 x 230,OAK/WT/DC/SK-K,,,,,,0,1,0,Duvet Cover SK-K T200 Plain White 260 x 230
OAK/WT/DC/Q-F,3530010,code128,ENSO,101,55,375,2,VAT @5%,exclusive,,102,Duvet Cover|Q-F|T200 Plain White|220 x 230,OAK/WT/DC/Q-F,,,,,,0,1,0,Duvet Cover Q-F T200 Plain White 220 x 230
OAK/WT/DC/S,3530011,code128,ENSO,101,40,285,2,VAT @5%,exclusive,,102,Duvet Cover|S|T200 Plain White|160 x 230,OAK/WT/DC/S,,,,,,0,1,0,Duvet Cover S T200 Plain White 160 x 230
OAK/WT/TS/SK-K,3530012,code128,ENSO,101,40,290,2,VAT @5%,exclusive,,106,Top Sheet|SK-K|T200 Plain White|270 x 290,OAK/WT/TS/SK-K,,,,,,0,1,0,Top Sheet SK-K T200 Plain White 270 x 290
OAK/WT/TS/Q-F,3530013,code128,ENSO,101,35,235,2,VAT @5%,exclusive,,106,Top Sheet|Q-F|T200 Plain White|220 x 290,OAK/WT/TS/Q-F,,,,,,0,1,0,Top Sheet Q-F T200 Plain White 220 x 290
OAK/WT/TS/S,3530014,code128,ENSO,101,25,175,2,VAT @5%,exclusive,,106,Top Sheet|S|T200 Plain White|160 x 290,OAK/WT/TS/S,,,,,,0,1,0,Top Sheet S T200 Plain White 160 x 290
OAK/WT/FS/SK,3530015,code128,ENSO,101,35,260,2,VAT @5%,exclusive,,106,Fitted Sheet|SK|T200 Plain White|200 x 200+30,OAK/WT/FS/SK,,,,,,0,1,0,Fitted Sheet SK T200 Plain White 200 x 200+30
OAK/WT/FS/K,3530016,code128,ENSO,101,35,240,2,VAT @5%,exclusive,,106,Fitted Sheet|K|T200 Plain White|180 x 200+30,OAK/WT/FS/K,,,,,,0,1,0,Fitted Sheet K T200 Plain White 180 x 200+30
OAK/WT/FS/Q,3530017,code128,ENSO,101,30,220,2,VAT @5%,exclusive,,106,Fitted Sheet|Q|T200 Plain White|160 x 200 + 30,OAK/WT/FS/Q,,,,,,0,1,0,Fitted Sheet Q T200 Plain White 160 x 200 + 30
OAK/WT/FS/F,3530018,code128,ENSO,101,30,205,2,VAT @5%,exclusive,,106,Fitted Sheet|F|T200 Plain White|140 x 200 + 30,OAK/WT/FS/F,,,,,,0,1,0,Fitted Sheet F T200 Plain White 140 x 200 + 30
OAK/WT/FS/S,3530019,code128,ENSO,101,25,165,2,VAT @5%,exclusive,,106,Fitted Sheet|S|T200 Plain White|100 x 200 + 30,OAK/WT/FS/S,,,,,,0,1,0,Fitted Sheet S T200 Plain White 100 x 200 + 30
OAK/WT/OPC/K,3530020,code128,ENSO,101,10,55,2,VAT @5%,exclusive,,106,Pillow Case Oxford|K|T200 Plain White|50 x 90,OAK/WT/OPC/K,,,,,,0,1,0,Pillow Case Oxford K T200 Plain White 50 x 90
OAK/WT/OPC/S,3530021,code128,ENSO,101,10,55,2,VAT @5%,exclusive,,106,Pillow Case Oxford|S|T200 Plain White|50 x 75,OAK/WT/OPC/S,,,,,,0,1,0,Pillow Case Oxford S T200 Plain White 50 x 75
OAK/WT/UPC/K,3530022,code128,ENSO,101,5,40,2,VAT @5%,exclusive,,106,Pillow Case US|K|T200 Plain White|50 x 90,OAK/WT/UPC/K,,,,,,0,1,0,Pillow Case US K T200 Plain White 50 x 90
OAK/WT/UPC/S,3530023,code128,ENSO,101,5,40,2,VAT @5%,exclusive,,106,Pillow Case US|S|T200 Plain White|50 x 75,OAK/WT/UPC/S,,,,,,0,1,0,Pillow Case US S T200 Plain White 50 x 75
OAK/CH/DS/SK-K,3530024,code128,ENSO,101,85,495,2,VAT @5%,exclusive,,107,Duvet Set|SK-K|T200 Plain Charcoal|-One Duvet Cover 260 cm x 230 cm -Two Oxfor Pillow Case 50 cm x 75cm,OAK/CH/DS/SK-K,,,,,,0,1,0,Duvet Set SK-K T200 Plain Charcoal -One Duvet Cover 260 cm x 230 cm -Two Oxfor Pillow Case 50 cm x 75cm
OAK/CH/DS/Q-F,3530025,code128,ENSO,101,70,420,2,VAT @5%,exclusive,,107,Duvet Set|Q-F|T200 Plain Charcoal|-One Duvet Cover 260 cm x 230 cm -Two Oxfor Pillow Case 50 cm x 75cm,OAK/CH/DS/Q-F,,,,,,0,1,0,Duvet Set Q-F T200 Plain Charcoal -One Duvet Cover 260 cm x 230 cm -Two Oxfor Pillow Case 50 cm x 75cm
OAK/CH/DS/S,3530026,code128,ENSO,101,55,295,2,VAT @5%,exclusive,,107,Duvet Set|S|T200 Plain Charcoal|-One Duvet Cover 160 cm x 230 cm -One Oxfor Pillow Case 50 cm x 75cm,OAK/CH/DS/S,,,,,,0,1,0,Duvet Set S T200 Plain Charcoal -One Duvet Cover 160 cm x 230 cm -One Oxfor Pillow Case 50 cm x 75cm
OAK/CH/SS/SK,3530027,code128,ENSO,101,90,540,2,VAT @5%,exclusive,,107,Sheet Set|SK|T200 Plain Charcoal|-One Fitted Sheet 180 cm x 200 cm -One Top Sheet 270 cm x 290 cm -Two US Pillow Case 50 cm x 75cm,OAK/CH/SS/SK,,,,,,0,1,0,Sheet Set SK T200 Plain Charcoal -One Fitted Sheet 180 cm x 200 cm -One Top Sheet 270 cm x 290 cm -Two US Pillow Case 50 cm x 75cm
OAK/CH/SS/K,3530028,code128,ENSO,101,90,525,2,VAT @5%,exclusive,,107,Sheet Set|K|T200 Plain Charcoal|-One Fitted Sheet 180 cm x 200 cm -One Top Sheet 270 cm x 290 cm -Two US Pillow Case 50 cm x 75cm,OAK/CH/SS/K,,,,,,0,1,0,Sheet Set K T200 Plain Charcoal -One Fitted Sheet 180 cm x 200 cm -One Top Sheet 270 cm x 290 cm -Two US Pillow Case 50 cm x 75cm
OAK/CH/SS/Q,3530029,code128,ENSO,101,75,465,2,VAT @5%,exclusive,,107,Sheet Set|Q|T200 Plain Charcoal|-One Fitted Sheet 180 cm x 200 cm -One Top Sheet 270 cm x 290 cm -Two US Pillow Case 50 cm x 75cm,OAK/CH/SS/Q,,,,,,0,1,0,Sheet Set Q T200 Plain Charcoal -One Fitted Sheet 180 cm x 200 cm -One Top Sheet 270 cm x 290 cm -Two US Pillow Case 50 cm x 75cm
OAK/CH/SS/F,3530030,code128,ENSO,101,75,450,2,VAT @5%,exclusive,,107,Sheet Set|F|T200 Plain Charcoal|-One Fitted Sheet 180 cm x 200 cm -One Top Sheet 270 cm x 290 cm -Two US Pillow Case 50 cm x 75cm,OAK/CH/SS/F,,,,,,0,1,0,Sheet Set F T200 Plain Charcoal -One Fitted Sheet 180 cm x 200 cm -One Top Sheet 270 cm x 290 cm -Two US Pillow Case 50 cm x 75cm
OAK/CH/SS/S,3530031,code128,ENSO,101,55,330,2,VAT @5%,exclusive,,107,Sheet Set|S|T200 Plain Charcoal|-One Fitted Sheet 100 cm x 200 cm -One Top Sheet -One US Pillow Case 50 cm x 75cm,OAK/CH/SS/S,,,,,,0,1,0,Sheet Set S T200 Plain Charcoal -One Fitted Sheet 100 cm x 200 cm -One Top Sheet -One US Pillow Case 50 cm x 75cm
OAK/CH/DC/SK-K,3530032,code128,ENSO,101,65,470,2,VAT @5%,exclusive,,102,Duvet Cover|SK-K|T200 Plain Charcoal|260 x 230,OAK/CH/DC/SK-K,,,,,,0,1,0,Duvet Cover SK-K T200 Plain Charcoal 260 x 230
OAK/CH/DC/Q-F,3530033,code128,ENSO,101,55,375,2,VAT @5%,exclusive,,102,Duvet Cover|Q-F|T200 Plain Charcoal|220 x 230,OAK/CH/DC/Q-F,,,,,,0,1,0,Duvet Cover Q-F T200 Plain Charcoal 220 x 230
OAK/CH/DC/S,3530034,code128,ENSO,101,40,285,2,VAT @5%,exclusive,,102,Duvet Cover|S|T200 Plain Charcoal|160 x 230,OAK/CH/DC/S,,,,,,0,1,0,Duvet Cover S T200 Plain Charcoal 160 x 230
OAK/CH/TS/SK-K,3530035,code128,ENSO,101,40,290,2,VAT @5%,exclusive,,106,Top Sheet|SK-K|T200 Plain Charcoal|270 x 290,OAK/CH/TS/SK-K,,,,,,0,1,0,Top Sheet SK-K T200 Plain Charcoal 270 x 290
OAK/CH/TS/Q-F,3530036,code128,ENSO,101,35,235,2,VAT @5%,exclusive,,106,Top Sheet|Q-F|T200 Plain Charcoal|220 x 290,OAK/CH/TS/Q-F,,,,,,0,1,0,Top Sheet Q-F T200 Plain Charcoal 220 x 290
OAK/CH/TS/S,3530037,code128,ENSO,101,25,175,2,VAT @5%,exclusive,,106,Top Sheet|S|T200 Plain Charcoal|160 x 290,OAK/CH/TS/S,,,,,,0,1,0,Top Sheet S T200 Plain Charcoal 160 x 290
OAK/CH/FS/SK,3530038,code128,ENSO,101,35,260,2,VAT @5%,exclusive,,106,Fitted Sheet|SK|T200 Plain Charcoal|200 x 200+30,OAK/CH/FS/SK,,,,,,0,1,0,Fitted Sheet SK T200 Plain Charcoal 200 x 200+30
OAK/CH/FS/K,3530039,code128,ENSO,101,35,240,2,VAT @5%,exclusive,,106,Fitted Sheet|K|T200 Plain Charcoal|180 x 200+30,OAK/CH/FS/K,,,,,,0,1,0,Fitted Sheet K T200 Plain Charcoal 180 x 200+30
OAK/CH/FS/Q,3530040,code128,ENSO,101,30,220,2,VAT @5%,exclusive,,106,Fitted Sheet|Q|T200 Plain Charcoal|160 x 200 + 30,OAK/CH/FS/Q,,,,,,0,1,0,Fitted Sheet Q T200 Plain Charcoal 160 x 200 + 30
OAK/CH/FS/F,3530041,code128,ENSO,101,30,205,2,VAT @5%,exclusive,,106,Fitted Sheet|F|T200 Plain Charcoal|140 x 200 + 30,OAK/CH/FS/F,,,,,,0,1,0,Fitted Sheet F T200 Plain Charcoal 140 x 200 + 30
OAK/CH/FS/S,3530042,code128,ENSO,101,25,165,2,VAT @5%,exclusive,,106,Fitted Sheet|S|T200 Plain Charcoal|100 x 200 + 30,OAK/CH/FS/S,,,,,,0,1,0,Fitted Sheet S T200 Plain Charcoal 100 x 200 + 30
OAK/CH/OPC/K,3530043,code128,ENSO,101,10,55,2,VAT @5%,exclusive,,106,Pillow Case Oxford|K|T200 Plain Charcoal|50 x 90,OAK/CH/OPC/K,,,,,,0,1,0,Pillow Case Oxford K T200 Plain Charcoal 50 x 90
OAK/CH/OPC/S,3530044,code128,ENSO,101,10,55,2,VAT @5%,exclusive,,106,Pillow Case Oxford|S|T200 Plain Charcoal|50 x 75,OAK/CH/OPC/S,,,,,,0,1,0,Pillow Case Oxford S T200 Plain Charcoal 50 x 75
OAK/CH/UPC/K,3530045,code128,ENSO,101,5,40,2,VAT @5%,exclusive,,106,Pillow Case US|K|T200 Plain Charcoal|50 x 90,OAK/CH/UPC/K,,,,,,0,1,0,Pillow Case US K T200 Plain Charcoal 50 x 90
OAK/CH/UPC/S,3530046,code128,ENSO,101,5,40,2,VAT @5%,exclusive,,106,Pillow Case US|S|T200 Plain Charcoal|50 x 75,OAK/CH/UPC/S,,,,,,0,1,0,Pillow Case US S T200 Plain Charcoal 50 x 75
ASH/WT/DS/SK-K,3530047,code128,ENSO,101,90,550,2,VAT @5%,exclusive,,107,Duvet Set|SK-K|T200 1 Line Embroidery White|-One Duvet Cover 260 cm x 230 cm -Two Oxfor Pillow Case 50 cm x 75cm,ASH/WT/DS/SK-K,,,,,,0,1,0,Duvet Set SK-K T200 1 Line Embroidery White -One Duvet Cover 260 cm x 230 cm -Two Oxfor Pillow Case 50 cm x 75cm
ASH/WT/DS/Q-F,3530048,code128,ENSO,101,80,470,2,VAT @5%,exclusive,,107,Duvet Set|Q-F|T200 1 Line Embroidery White|-One Duvet Cover 260 cm x 230 cm -Two Oxfor Pillow Case 50 cm x 75cm,ASH/WT/DS/Q-F,,,,,,0,1,0,Duvet Set Q-F T200 1 Line Embroidery White -One Duvet Cover 260 cm x 230 cm -Two Oxfor Pillow Case 50 cm x 75cm
ASH/WT/DS/S,3530049,code128,ENSO,101,10,60,2,VAT @5%,exclusive,,107,Duvet Set|S|T200 1 Line Embroidery White|-One Duvet Cover 160 cm x 230 cm -One Oxfor Pillow Case 50 cm x 75cm,ASH/WT/DS/S,,,,,,0,1,0,Duvet Set S T200 1 Line Embroidery White -One Duvet Cover 160 cm x 230 cm -One Oxfor Pillow Case 50 cm x 75cm
ASH/WT/SS/SK,3530050,code128,ENSO,101,100,590,2,VAT @5%,exclusive,,107,Sheet Set|SK|T200 1 Line Embroidery White|-One Fitted Sheet 180 cm x 200 cm -One Top Sheet 270 cm x 290 cm -Two US Pillow Case 50 cm x 75cm,ASH/WT/SS/SK,,,,,,0,1,0,Sheet Set SK T200 1 Line Embroidery White -One Fitted Sheet 180 cm x 200 cm -One Top Sheet 270 cm x 290 cm -Two US Pillow Case 50 cm x 75cm
ASH/WT/SS/K,3530051,code128,ENSO,101,95,570,2,VAT @5%,exclusive,,107,Sheet Set|K|T200 1 Line Embroidery White|-One Fitted Sheet 180 cm x 200 cm -One Top Sheet 270 cm x 290 cm -Two US Pillow Case 50 cm x 75cm,ASH/WT/SS/K,,,,,,0,1,0,Sheet Set K T200 1 Line Embroidery White -One Fitted Sheet 180 cm x 200 cm -One Top Sheet 270 cm x 290 cm -Two US Pillow Case 50 cm x 75cm
ASH/WT/SS/Q,3530052,code128,ENSO,101,85,505,2,VAT @5%,exclusive,,107,Sheet Set|Q|T200 1 Line Embroidery White|-One Fitted Sheet 180 cm x 200 cm -One Top Sheet 270 cm x 290 cm -Two US Pillow Case 50 cm x 75cm,ASH/WT/SS/Q,,,,,,0,1,0,Sheet Set Q T200 1 Line Embroidery White -One Fitted Sheet 180 cm x 200 cm -One Top Sheet 270 cm x 290 cm -Two US Pillow Case 50 cm x 75cm
ASH/WT/SS/F,3530053,code128,ENSO,101,80,490,2,VAT @5%,exclusive,,107,Sheet Set|F|T200 1 Line Embroidery White|-One Fitted Sheet 180 cm x 200 cm -One Top Sheet 270 cm x 290 cm -Two US Pillow Case 50 cm x 75cm,ASH/WT/SS/F,,,,,,0,1,0,Sheet Set F T200 1 Line Embroidery White -One Fitted Sheet 180 cm x 200 cm -One Top Sheet 270 cm x 290 cm -Two US Pillow Case 50 cm x 75cm
ASH/WT/SS/S,3530054,code128,ENSO,101,10,45,2,VAT @5%,exclusive,,107,Sheet Set|S|T200 1 Line Embroidery White|-One Fitted Sheet 100 cm x 200 cm -One Top Sheet -One US Pillow Case 50 cm x 75cm,ASH/WT/SS/S,,,,,,0,1,0,Sheet Set S T200 1 Line Embroidery White -One Fitted Sheet 100 cm x 200 cm -One Top Sheet -One US Pillow Case 50 cm x 75cm
ASH/WT/DC/SK-K,3530055,code128,ENSO,101,70,495,2,VAT @5%,exclusive,,102,Duvet Cover|SK-K|T200 1 Line Embroidery White|260 x 230,ASH/WT/DC/SK-K,,,,,,0,1,0,Duvet Cover SK-K T200 1 Line Embroidery White 260 x 230
ASH/WT/DC/Q-F,3530056,code128,ENSO,101,55,400,2,VAT @5%,exclusive,,102,Duvet Cover|Q-F|T200 1 Line Embroidery White|220 x 230,ASH/WT/DC/Q-F,,,,,,0,1,0,Duvet Cover Q-F T200 1 Line Embroidery White 220 x 230
ASH/WT/TS/SK-K,3530057,code128,ENSO,101,45,315,2,VAT @5%,exclusive,,106,Top Sheet|SK-K|T200 1 Line Embroidery White|270 x 290,ASH/WT/TS/SK-K,,,,,,0,1,0,Top Sheet SK-K T200 1 Line Embroidery White 270 x 290
ASH/WT/TS/Q-F,3530058,code128,ENSO,101,35,260,2,VAT @5%,exclusive,,106,Top Sheet|Q-F|T200 1 Line Embroidery White|220 x 290,ASH/WT/TS/Q-F,,,,,,0,1,0,Top Sheet Q-F T200 1 Line Embroidery White 220 x 290
ASH/WT/FS/SK,3530059,code128,ENSO,101,35,260,2,VAT @5%,exclusive,,106,Fitted Sheet|SK|T200 1 Line Embroidery White|200 x 200+31,ASH/WT/FS/SK,,,,,,0,1,0,Fitted Sheet SK T200 1 Line Embroidery White 200 x 200+31
ASH/WT/FS/K,3530060,code128,ENSO,101,35,240,2,VAT @5%,exclusive,,106,Fitted Sheet|K|T200 1 Line Embroidery White|180 x 200+31,ASH/WT/FS/K,,,,,,0,1,0,Fitted Sheet K T200 1 Line Embroidery White 180 x 200+31
ASH/WT/FS/Q,3530061,code128,ENSO,101,30,220,2,VAT @5%,exclusive,,106,Fitted Sheet|Q|T200 1 Line Embroidery White|160 x 200 + 30,ASH/WT/FS/Q,,,,,,0,1,0,Fitted Sheet Q T200 1 Line Embroidery White 160 x 200 + 30
ASH/WT/FS/F,3530062,code128,ENSO,101,30,205,2,VAT @5%,exclusive,,106,Fitted Sheet|F|T200 1 Line Embroidery White|140 x 200 + 30,ASH/WT/FS/F,,,,,,0,1,0,Fitted Sheet F T200 1 Line Embroidery White 140 x 200 + 30
ASH/WT/OPC/K,3530063,code128,ENSO,101,10,75,2,VAT @5%,exclusive,,106,Pillow Case Oxford|K|T200 1 Line Embroidery White|50 x 90,ASH/WT/OPC/K,,,,,,0,1,0,Pillow Case Oxford K T200 1 Line Embroidery White 50 x 90
ASH/WT/OPC/S,3530064,code128,ENSO,101,10,75,2,VAT @5%,exclusive,,106,Pillow Case Oxford|S|T200 1 Line Embroidery White|50 x 75,ASH/WT/OPC/S,,,,,,0,1,0,Pillow Case Oxford S T200 1 Line Embroidery White 50 x 75
ASH/WT/UPC/K,3530065,code128,ENSO,101,10,55,2,VAT @5%,exclusive,,106,Pillow Case US|K|T200 1 Line Embroidery White|50 x 90,ASH/WT/UPC/K,,,,,,0,1,0,Pillow Case US K T200 1 Line Embroidery White 50 x 90
ASH/WT/UPC/S,3530066,code128,ENSO,101,10,55,2,VAT @5%,exclusive,,106,Pillow Case US|S|T200 1 Line Embroidery White|50 x 75,ASH/WT/UPC/S,,,,,,0,1,0,Pillow Case US S T200 1 Line Embroidery White 50 x 75
ASH/CH/DS/SK-K,3530067,code128,ENSO,101,90,550,2,VAT @5%,exclusive,,107,Duvet Set|SK-K|T200 1 Line Embroidery Charcoal|-One Duvet Cover 260 cm x 230 cm -Two Oxfor Pillow Case 50 cm x 75cm,ASH/CH/DS/SK-K,,,,,,0,1,0,Duvet Set SK-K T200 1 Line Embroidery Charcoal -One Duvet Cover 260 cm x 230 cm -Two Oxfor Pillow Case 50 cm x 75cm
ASH/CH/DS/Q-F,3530068,code128,ENSO,101,80,470,2,VAT @5%,exclusive,,107,Duvet Set|Q-F|T200 1 Line Embroidery Charcoal|-One Duvet Cover 260 cm x 230 cm -Two Oxfor Pillow Case 50 cm x 75cm,ASH/CH/DS/Q-F,,,,,,0,1,0,Duvet Set Q-F T200 1 Line Embroidery Charcoal -One Duvet Cover 260 cm x 230 cm -Two Oxfor Pillow Case 50 cm x 75cm
ASH/CH/DS/S,3530069,code128,ENSO,101,10,60,2,VAT @5%,exclusive,,107,Duvet Set|S|T200 1 Line Embroidery Charcoal|-One Duvet Cover 160 cm x 230 cm -One Oxfor Pillow Case 50 cm x 75cm,ASH/CH/DS/S,,,,,,0,1,0,Duvet Set S T200 1 Line Embroidery Charcoal -One Duvet Cover 160 cm x 230 cm -One Oxfor Pillow Case 50 cm x 75cm
ASH/CH/SS/SK,3530070,code128,ENSO,101,100,590,2,VAT @5%,exclusive,,107,Sheet Set|SK|T200 1 Line Embroidery Charcoal|-One Fitted Sheet 180 cm x 200 cm -One Top Sheet 270 cm x 290 cm -Two US Pillow Case 50 cm x 75cm,ASH/CH/SS/SK,,,,,,0,1,0,Sheet Set SK T200 1 Line Embroidery Charcoal -One Fitted Sheet 180 cm x 200 cm -One Top Sheet 270 cm x 290 cm -Two US Pillow Case 50 cm x 75cm
ASH/CH/SS/K,3530071,code128,ENSO,101,95,570,2,VAT @5%,exclusive,,107,Sheet Set|K|T200 1 Line Embroidery Charcoal|-One Fitted Sheet 180 cm x 200 cm -One Top Sheet 270 cm x 290 cm -Two US Pillow Case 50 cm x 75cm,ASH/CH/SS/K,,,,,,0,1,0,Sheet Set K T200 1 Line Embroidery Charcoal -One Fitted Sheet 180 cm x 200 cm -One Top Sheet 270 cm x 290 cm -Two US Pillow Case 50 cm x 75cm
ASH/CH/SS/Q,3530072,code128,ENSO,101,85,505,2,VAT @5%,exclusive,,107,Sheet Set|Q|T200 1 Line Embroidery Charcoal|-One Fitted Sheet 180 cm x 200 cm -One Top Sheet 270 cm x 290 cm -Two US Pillow Case 50 cm x 75cm,ASH/CH/SS/Q,,,,,,0,1,0,Sheet Set Q T200 1 Line Embroidery Charcoal -One Fitted Sheet 180 cm x 200 cm -One Top Sheet 270 cm x 290 cm -Two US Pillow Case 50 cm x 75cm
ASH/CH/SS/F,3530073,code128,ENSO,101,80,490,2,VAT @5%,exclusive,,107,Sheet Set|F|T200 1 Line Embroidery Charcoal|-One Fitted Sheet 180 cm x 200 cm -One Top Sheet 270 cm x 290 cm -Two US Pillow Case 50 cm x 75cm,ASH/CH/SS/F,,,,,,0,1,0,Sheet Set F T200 1 Line Embroidery Charcoal -One Fitted Sheet 180 cm x 200 cm -One Top Sheet 270 cm x 290 cm -Two US Pillow Case 50 cm x 75cm
ASH/CH/SS/S,3530074,code128,ENSO,101,10,45,2,VAT @5%,exclusive,,107,Sheet Set|S|T200 1 Line Embroidery Charcoal|-One Fitted Sheet 100 cm x 200 cm -One Top Sheet -One US Pillow Case 50 cm x 75cm,ASH/CH/SS/S,,,,,,0,1,0,Sheet Set S T200 1 Line Embroidery Charcoal -One Fitted Sheet 100 cm x 200 cm -One Top Sheet -One US Pillow Case 50 cm x 75cm
ASH/CH/DC/SK-K,3530075,code128,ENSO,101,70,495,2,VAT @5%,exclusive,,102,Duvet Cover|SK-K|T200 1 Line Embroidery Charcoal|260 x 230,ASH/CH/DC/SK-K,,,,,,0,1,0,Duvet Cover SK-K T200 1 Line Embroidery Charcoal 260 x 230
ASH/CH/DC/Q-F,3530076,code128,ENSO,101,55,400,2,VAT @5%,exclusive,,102,Duvet Cover|Q-F|T200 1 Line Embroidery Charcoal|220 x 230,ASH/CH/DC/Q-F,,,,,,0,1,0,Duvet Cover Q-F T200 1 Line Embroidery Charcoal 220 x 230
ASH/CH/TS/SK-K,3530077,code128,ENSO,101,45,315,2,VAT @5%,exclusive,,106,Top Sheet|SK-K|T200 1 Line Embroidery Charcoal|270 x 290,ASH/CH/TS/SK-K,,,,,,0,1,0,Top Sheet SK-K T200 1 Line Embroidery Charcoal 270 x 290
ASH/CH/TS/Q-F,3530078,code128,ENSO,101,35,260,2,VAT @5%,exclusive,,106,Top Sheet|Q-F|T200 1 Line Embroidery Charcoal|220 x 290,ASH/CH/TS/Q-F,,,,,,0,1,0,Top Sheet Q-F T200 1 Line Embroidery Charcoal 220 x 290
ASH/CH/FS/SK,3530079,code128,ENSO,101,35,260,2,VAT @5%,exclusive,,106,Fitted Sheet|SK|T200 1 Line Embroidery Charcoal|200 x 200+31,ASH/CH/FS/SK,,,,,,0,1,0,Fitted Sheet SK T200 1 Line Embroidery Charcoal 200 x 200+31
ASH/CH/FS/K,3530080,code128,ENSO,101,35,240,2,VAT @5%,exclusive,,106,Fitted Sheet|K|T200 1 Line Embroidery Charcoal|180 x 200+31,ASH/CH/FS/K,,,,,,0,1,0,Fitted Sheet K T200 1 Line Embroidery Charcoal 180 x 200+31
ASH/CH/FS/Q,3530081,code128,ENSO,101,30,220,2,VAT @5%,exclusive,,106,Fitted Sheet|Q|T200 1 Line Embroidery Charcoal|160 x 200 + 30,ASH/CH/FS/Q,,,,,,0,1,0,Fitted Sheet Q T200 1 Line Embroidery Charcoal 160 x 200 + 30
ASH/CH/FS/F,3530082,code128,ENSO,101,30,205,2,VAT @5%,exclusive,,106,Fitted Sheet|F|T200 1 Line Embroidery Charcoal|140 x 200 + 30,ASH/CH/FS/F,,,,,,0,1,0,Fitted Sheet F T200 1 Line Embroidery Charcoal 140 x 200 + 30
ASH/CH/OPC/K,3530083,code128,ENSO,101,10,75,2,VAT @5%,exclusive,,106,Pillow Case Oxford|K|T200 1 Line Embroidery Charcoal|50 x 90,ASH/CH/OPC/K,,,,,,0,1,0,Pillow Case Oxford K T200 1 Line Embroidery Charcoal 50 x 90
ASH/CH/OPC/S,3530084,code128,ENSO,101,10,75,2,VAT @5%,exclusive,,106,Pillow Case Oxford|S|T200 1 Line Embroidery Charcoal|50 x 75,ASH/CH/OPC/S,,,,,,0,1,0,Pillow Case Oxford S T200 1 Line Embroidery Charcoal 50 x 75
ASH/CH/UPC/K,3530085,code128,ENSO,101,10,55,2,VAT @5%,exclusive,,106,Pillow Case US|K|T200 1 Line Embroidery Charcoal|50 x 90,ASH/CH/UPC/K,,,,,,0,1,0,Pillow Case US K T200 1 Line Embroidery Charcoal 50 x 90
ASH/CH/UPC/S,3530086,code128,ENSO,101,10,55,2,VAT @5%,exclusive,,106,Pillow Case US|S|T200 1 Line Embroidery Charcoal|50 x 75,ASH/CH/UPC/S,,,,,,0,1,0,Pillow Case US S T200 1 Line Embroidery Charcoal 50 x 75
TUPELO/CW/DS/SK-K,3530087,code128,ENSO,101,85,495,2,VAT @5%,exclusive,,107,Duvet Set|SK-K|T200 2 Color Charcoal/White|-One Duvet Cover 260 cm x 230 cm -Two Oxfor Pillow Case 50 cm x 75cm,TUPELO/CW/DS/SK-K,,,,,,0,1,0,Duvet Set SK-K T200 2 Color Charcoal/White -One Duvet Cover 260 cm x 230 cm -Two Oxfor Pillow Case 50 cm x 75cm
TUPELO/CW/DS/Q-F,3530088,code128,ENSO,101,70,420,2,VAT @5%,exclusive,,107,Duvet Set|Q-F|T200 2 Color Charcoal/White|-One Duvet Cover 260 cm x 230 cm -Two Oxfor Pillow Case 50 cm x 75cm,TUPELO/CW/DS/Q-F,,,,,,0,1,0,Duvet Set Q-F T200 2 Color Charcoal/White -One Duvet Cover 260 cm x 230 cm -Two Oxfor Pillow Case 50 cm x 75cm
TUPELO/CW/DS/S,3530089,code128,ENSO,101,50,295,2,VAT @5%,exclusive,,107,Duvet Set|S|T200 2 Color Charcoal/White|-One Duvet Cover 160 cm x 230 cm -One Oxfor Pillow Case 50 cm x 75cm,TUPELO/CW/DS/S,,,,,,0,1,0,Duvet Set S T200 2 Color Charcoal/White -One Duvet Cover 160 cm x 230 cm -One Oxfor Pillow Case 50 cm x 75cm
TUPELO/CW/SS/SK,3530090,code128,ENSO,101,90,540,2,VAT @5%,exclusive,,107,Sheet Set|SK|T200 2 Color Charcoal/White|-One Fitted Sheet 180 cm x 200 cm -One Top Sheet 270 cm x 290 cm -Two US Pillow Case 50 cm x 75cm,TUPELO/CW/SS/SK,,,,,,0,1,0,Sheet Set SK T200 2 Color Charcoal/White -One Fitted Sheet 180 cm x 200 cm -One Top Sheet 270 cm x 290 cm -Two US Pillow Case 50 cm x 75cm
TUPELO/CW/SS/K,3530091,code128,ENSO,101,90,525,2,VAT @5%,exclusive,,107,Sheet Set|K|T200 2 Color Charcoal/White|-One Fitted Sheet 180 cm x 200 cm -One Top Sheet 270 cm x 290 cm -Two US Pillow Case 50 cm x 75cm,TUPELO/CW/SS/K,,,,,,0,1,0,Sheet Set K T200 2 Color Charcoal/White -One Fitted Sheet 180 cm x 200 cm -One Top Sheet 270 cm x 290 cm -Two US Pillow Case 50 cm x 75cm
TUPELO/CW/SS/Q,3530092,code128,ENSO,101,75,455,2,VAT @5%,exclusive,,107,Sheet Set|Q|T200 2 Color Charcoal/White|-One Fitted Sheet 180 cm x 200 cm -One Top Sheet 270 cm x 290 cm -Two US Pillow Case 50 cm x 75cm,TUPELO/CW/SS/Q,,,,,,0,1,0,Sheet Set Q T200 2 Color Charcoal/White -One Fitted Sheet 180 cm x 200 cm -One Top Sheet 270 cm x 290 cm -Two US Pillow Case 50 cm x 75cm
TUPELO/CW/SS/F,3530093,code128,ENSO,101,75,450,2,VAT @5%,exclusive,,107,Sheet Set|F|T200 2 Color Charcoal/White|-One Fitted Sheet 180 cm x 200 cm -One Top Sheet 270 cm x 290 cm -Two US Pillow Case 50 cm x 75cm,TUPELO/CW/SS/F,,,,,,0,1,0,Sheet Set F T200 2 Color Charcoal/White -One Fitted Sheet 180 cm x 200 cm -One Top Sheet 270 cm x 290 cm -Two US Pillow Case 50 cm x 75cm
TUPELO/CW/SS/S,3530094,code128,ENSO,101,55,330,2,VAT @5%,exclusive,,107,Sheet Set|S|T200 2 Color Charcoal/White|-One Fitted Sheet 100 cm x 200 cm -One Top Sheet -One US Pillow Case 50 cm x 75cm,TUPELO/CW/SS/S,,,,,,0,1,0,Sheet Set S T200 2 Color Charcoal/White -One Fitted Sheet 100 cm x 200 cm -One Top Sheet -One US Pillow Case 50 cm x 75cm
TUPELO/CW/DC/SK-K,3530095,code128,ENSO,101,65,470,2,VAT @5%,exclusive,,102,Duvet Cover|SK-K|T200 2 Color Charcoal/White|260 x 230,TUPELO/CW/DC/SK-K,,,,,,0,1,0,Duvet Cover SK-K T200 2 Color Charcoal/White 260 x 230
TUPELO/CW/DC/Q-F,3530096,code128,ENSO,101,55,375,2,VAT @5%,exclusive,,102,Duvet Cover|Q-F|T200 2 Color Charcoal/White|220 x 230,TUPELO/CW/DC/Q-F,,,,,,0,1,0,Duvet Cover Q-F T200 2 Color Charcoal/White 220 x 230
TUPELO/CW/DC/S,3530097,code128,ENSO,101,40,285,2,VAT @5%,exclusive,,102,Duvet Cover|S|T200 2 Color Charcoal/White|160 x 232,TUPELO/CW/DC/S,,,,,,0,1,0,Duvet Cover S T200 2 Color Charcoal/White 160 x 232
TUPELO/CW/TS/SK-K,3530098,code128,ENSO,101,40,290,2,VAT @5%,exclusive,,106,Top Sheet|SK-K|T200 2 Color Charcoal/White|270 x 290,TUPELO/CW/TS/SK-K,,,,,,0,1,0,Top Sheet SK-K T200 2 Color Charcoal/White 270 x 290
TUPELO/CW/TS/Q-F,3530099,code128,ENSO,101,35,235,2,VAT @5%,exclusive,,106,Top Sheet|Q-F|T200 2 Color Charcoal/White|220 x 290,TUPELO/CW/TS/Q-F,,,,,,0,1,0,Top Sheet Q-F T200 2 Color Charcoal/White 220 x 290
TUPELO/CW/TS/S,3530100,code128,ENSO,101,25,175,2,VAT @5%,exclusive,,106,Top Sheet|S|T200 2 Color Charcoal/White|160 x 290,TUPELO/CW/TS/S,,,,,,0,1,0,Top Sheet S T200 2 Color Charcoal/White 160 x 290
TUPELO/CW/FS/SK,3530101,code128,ENSO,101,35,260,2,VAT @5%,exclusive,,106,Fitted Sheet|SK|T200 2 Color Charcoal/White|200 x 200+32,TUPELO/CW/FS/SK,,,,,,0,1,0,Fitted Sheet SK T200 2 Color Charcoal/White 200 x 200+32
TUPELO/CW/FS/K,3530102,code128,ENSO,101,35,240,2,VAT @5%,exclusive,,106,Fitted Sheet|K|T200 2 Color Charcoal/White|180 x 200+32,TUPELO/CW/FS/K,,,,,,0,1,0,Fitted Sheet K T200 2 Color Charcoal/White 180 x 200+32
TUPELO/CW/FS/Q,3530103,code128,ENSO,101,30,215,2,VAT @5%,exclusive,,106,Fitted Sheet|Q|T200 2 Color Charcoal/White|160 x 200 + 30,TUPELO/CW/FS/Q,,,,,,0,1,0,Fitted Sheet Q T200 2 Color Charcoal/White 160 x 200 + 30
TUPELO/CW/FS/F,3530104,code128,ENSO,101,30,205,2,VAT @5%,exclusive,,106,Fitted Sheet|F|T200 2 Color Charcoal/White|140 x 200 + 30,TUPELO/CW/FS/F,,,,,,0,1,0,Fitted Sheet F T200 2 Color Charcoal/White 140 x 200 + 30
TUPELO/CW/FS/S,3530105,code128,ENSO,101,25,165,2,VAT @5%,exclusive,,106,Fitted Sheet|S|T200 2 Color Charcoal/White|100 x 200 + 30,TUPELO/CW/FS/S,,,,,,0,1,0,Fitted Sheet S T200 2 Color Charcoal/White 100 x 200 + 30
TUPELO/CW/OPC/K,3530106,code128,ENSO,101,10,55,2,VAT @5%,exclusive,,106,Pillow Case Oxford|K|T200 2 Color Charcoal/White|50 x 90,TUPELO/CW/OPC/K,,,,,,0,1,0,Pillow Case Oxford K T200 2 Color Charcoal/White 50 x 90
TUPELO/CW/OPC/S,3530107,code128,ENSO,101,10,55,2,VAT @5%,exclusive,,106,Pillow Case Oxford|S|T200 2 Color Charcoal/White|50 x 75,TUPELO/CW/OPC/S,,,,,,0,1,0,Pillow Case Oxford S T200 2 Color Charcoal/White 50 x 75
TUPELO/CW/UPC/K,3530108,code128,ENSO,101,5,40,2,VAT @5%,exclusive,,106,Pillow Case US|K|T200 2 Color Charcoal/White|50 x 90,TUPELO/CW/UPC/K,,,,,,0,1,0,Pillow Case US K T200 2 Color Charcoal/White 50 x 90
TUPELO/CW/UPC/S,3530109,code128,ENSO,101,5,40,2,VAT @5%,exclusive,,106,Pillow Case US|S|T200 2 Color Charcoal/White|50 x 75,TUPELO/CW/UPC/S,,,,,,0,1,0,Pillow Case US S T200 2 Color Charcoal/White 50 x 75
ROBLE/WT/DS/SK-K,3530110,code128,ENSO,101,85,515,2,VAT @5%,exclusive,,107,Duvet Set|SK-K|T300 Plain White|-One Duvet Cover 260 cm x 230 cm -Two Oxfor Pillow Case 50 cm x 75cm,ROBLE/WT/DS/SK-K,,,,,,0,1,0,Duvet Set SK-K T300 Plain White -One Duvet Cover 260 cm x 230 cm -Two Oxfor Pillow Case 50 cm x 75cm
ROBLE/WT/DS/Q-F,3530111,code128,ENSO,101,70,425,2,VAT @5%,exclusive,,107,Duvet Set|Q-F|T300 Plain White|-One Duvet Cover 260 cm x 230 cm -Two Oxfor Pillow Case 50 cm x 75cm,ROBLE/WT/DS/Q-F,,,,,,0,1,0,Duvet Set Q-F T300 Plain White -One Duvet Cover 260 cm x 230 cm -Two Oxfor Pillow Case 50 cm x 75cm
ROBLE/WT/DS/S,3530112,code128,ENSO,101,50,295,2,VAT @5%,exclusive,,107,Duvet Set|S|T300 Plain White|-One Duvet Cover 160 cm x 230 cm -One Oxfor Pillow Case 50 cm x 75cm,ROBLE/WT/DS/S,,,,,,0,1,0,Duvet Set S T300 Plain White -One Duvet Cover 160 cm x 230 cm -One Oxfor Pillow Case 50 cm x 75cm
ROBLE/WT/SS/SK,3530113,code128,ENSO,101,95,570,2,VAT @5%,exclusive,,107,Sheet Set|SK|T300 Plain White|-One Fitted Sheet 180 cm x 200 cm -One Top Sheet 270 cm x 290 cm -Two US Pillow Case 50 cm x 75cm,ROBLE/WT/SS/SK,,,,,,0,1,0,Sheet Set SK T300 Plain White -One Fitted Sheet 180 cm x 200 cm -One Top Sheet 270 cm x 290 cm -Two US Pillow Case 50 cm x 75cm
ROBLE/WT/SS/K,3530114,code128,ENSO,101,90,550,2,VAT @5%,exclusive,,107,Sheet Set|K|T300 Plain White|-One Fitted Sheet 180 cm x 200 cm -One Top Sheet 270 cm x 290 cm -Two US Pillow Case 50 cm x 75cm,ROBLE/WT/SS/K,,,,,,0,1,0,Sheet Set K T300 Plain White -One Fitted Sheet 180 cm x 200 cm -One Top Sheet 270 cm x 290 cm -Two US Pillow Case 50 cm x 75cm
ROBLE/WT/SS/Q,3530115,code128,ENSO,101,85,505,2,VAT @5%,exclusive,,107,Sheet Set|Q|T300 Plain White|-One Fitted Sheet 180 cm x 200 cm -One Top Sheet 270 cm x 290 cm -Two US Pillow Case 50 cm x 75cm,ROBLE/WT/SS/Q,,,,,,0,1,0,Sheet Set Q T300 Plain White -One Fitted Sheet 180 cm x 200 cm -One Top Sheet 270 cm x 290 cm -Two US Pillow Case 50 cm x 75cm
ROBLE/WT/SS/F,3530116,code128,ENSO,101,75,465,2,VAT @5%,exclusive,,107,Sheet Set|F|T300 Plain White|-One Fitted Sheet 180 cm x 200 cm -One Top Sheet 270 cm x 290 cm -Two US Pillow Case 50 cm x 75cm,ROBLE/WT/SS/F,,,,,,0,1,0,Sheet Set F T300 Plain White -One Fitted Sheet 180 cm x 200 cm -One Top Sheet 270 cm x 290 cm -Two US Pillow Case 50 cm x 75cm
ROBLE/WT/SS/S,3530117,code128,ENSO,101,55,340,2,VAT @5%,exclusive,,107,Sheet Set|S|T300 Plain White|-One Fitted Sheet 100 cm x 200 cm -One Top Sheet -One US Pillow Case 50 cm x 75cm,ROBLE/WT/SS/S,,,,,,0,1,0,Sheet Set S T300 Plain White -One Fitted Sheet 100 cm x 200 cm -One Top Sheet -One US Pillow Case 50 cm x 75cm
ROBLE/WT/DC/SK-K,3530118,code128,ENSO,101,70,485,2,VAT @5%,exclusive,,102,Duvet Cover|SK-K|T300 Plain White|260 x 230,ROBLE/WT/DC/SK-K,,,,,,0,1,0,Duvet Cover SK-K T300 Plain White 260 x 230
ROBLE/WT/DC/Q-F,3530119,code128,ENSO,101,55,385,2,VAT @5%,exclusive,,102,Duvet Cover|Q-F|T300 Plain White|220 x 230,ROBLE/WT/DC/Q-F,,,,,,0,1,0,Duvet Cover Q-F T300 Plain White 220 x 230
ROBLE/WT/DC/S,3530120,code128,ENSO,101,40,285,2,VAT @5%,exclusive,,102,Duvet Cover|S|T300 Plain White|160 x 234,ROBLE/WT/DC/S,,,,,,0,1,0,Duvet Cover S T300 Plain White 160 x 234
ROBLE/WT/FS/SK,3530121,code128,ENSO,101,40,270,2,VAT @5%,exclusive,,106,Fitted Sheet|SK|T300 Plain White|200 x 200+34,ROBLE/WT/FS/SK,,,,,,0,1,0,Fitted Sheet SK T300 Plain White 200 x 200+34
ROBLE/WT/FS/K,3530122,code128,ENSO,101,35,250,2,VAT @5%,exclusive,,106,Fitted Sheet|K|T300 Plain White|180 x 200+34,ROBLE/WT/FS/K,,,,,,0,1,0,Fitted Sheet K T300 Plain White 180 x 200+34
ROBLE/WT/FS/Q,3530123,code128,ENSO,101,35,230,2,VAT @5%,exclusive,,106,Fitted Sheet|Q|T300 Plain White|160 x 200 + 30,ROBLE/WT/FS/Q,,,,,,0,1,0,Fitted Sheet Q T300 Plain White 160 x 200 + 30
ROBLE/WT/FS/F,3530124,code128,ENSO,101,30,210,2,VAT @5%,exclusive,,106,Fitted Sheet|F|T300 Plain White|140 x 200 + 30,ROBLE/WT/FS/F,,,,,,0,1,0,Fitted Sheet F T300 Plain White 140 x 200 + 30
ROBLE/WT/FS/S,3530125,code128,ENSO,101,25,170,2,VAT @5%,exclusive,,106,Fitted Sheet|S|T300 Plain White|100 x 200 + 30,ROBLE/WT/FS/S,,,,,,0,1,0,Fitted Sheet S T300 Plain White 100 x 200 + 30
ROBLE/WT/OPC/K,3530126,code128,ENSO,101,10,60,2,VAT @5%,exclusive,,106,Pillow Case Oxford|K|T300 Plain White|50 x 90,ROBLE/WT/OPC/K,,,,,,0,1,0,Pillow Case Oxford K T300 Plain White 50 x 90
ROBLE/WT/OPC/S,3530127,code128,ENSO,101,10,60,2,VAT @5%,exclusive,,106,Pillow Case Oxford|S|T300 Plain White|50 x 75,ROBLE/WT/OPC/S,,,,,,0,1,0,Pillow Case Oxford S T300 Plain White 50 x 75
ROBLE/WT/UPC/K,3530128,code128,ENSO,101,5,45,2,VAT @5%,exclusive,,106,Pillow Case US|K|T300 Plain White|50 x 90,ROBLE/WT/UPC/K,,,,,,0,1,0,Pillow Case US K T300 Plain White 50 x 90
ROBLE/WT/UPC/S,3530129,code128,ENSO,101,5,45,2,VAT @5%,exclusive,,106,Pillow Case US|S|T300 Plain White|50 x 75,ROBLE/WT/UPC/S,,,,,,0,1,0,Pillow Case US S T300 Plain White 50 x 75
ROBLE/CH/DS/SK-K,3530130,code128,ENSO,101,85,515,2,VAT @5%,exclusive,,107,Duvet Set|SK-K|T300 Plain Charcoal|-One Duvet Cover 260 cm x 230 cm -Two Oxfor Pillow Case 50 cm x 75cm,ROBLE/CH/DS/SK-K,,,,,,0,1,0,Duvet Set SK-K T300 Plain Charcoal -One Duvet Cover 260 cm x 230 cm -Two Oxfor Pillow Case 50 cm x 75cm
ROBLE/CH/DS/Q-F,3530131,code128,ENSO,101,70,425,2,VAT @5%,exclusive,,107,Duvet Set|Q-F|T300 Plain Charcoal|-One Duvet Cover 260 cm x 230 cm -Two Oxfor Pillow Case 50 cm x 75cm,ROBLE/CH/DS/Q-F,,,,,,0,1,0,Duvet Set Q-F T300 Plain Charcoal -One Duvet Cover 260 cm x 230 cm -Two Oxfor Pillow Case 50 cm x 75cm
ROBLE/CH/DS/S,3530132,code128,ENSO,101,50,295,2,VAT @5%,exclusive,,107,Duvet Set|S|T300 Plain Charcoal|-One Duvet Cover 160 cm x 230 cm -One Oxfor Pillow Case 50 cm x 75cm,ROBLE/CH/DS/S,,,,,,0,1,0,Duvet Set S T300 Plain Charcoal -One Duvet Cover 160 cm x 230 cm -One Oxfor Pillow Case 50 cm x 75cm
ROBLE/CH/SS/SK,3530133,code128,ENSO,101,95,570,2,VAT @5%,exclusive,,107,Sheet Set|SK|T300 Plain Charcoal|-One Fitted Sheet 180 cm x 200 cm -One Top Sheet 270 cm x 290 cm -Two US Pillow Case 50 cm x 75cm,ROBLE/CH/SS/SK,,,,,,0,1,0,Sheet Set SK T300 Plain Charcoal -One Fitted Sheet 180 cm x 200 cm -One Top Sheet 270 cm x 290 cm -Two US Pillow Case 50 cm x 75cm
ROBLE/CH/SS/K,3530134,code128,ENSO,101,90,550,2,VAT @5%,exclusive,,107,Sheet Set|K|T300 Plain Charcoal|-One Fitted Sheet 180 cm x 200 cm -One Top Sheet 270 cm x 290 cm -Two US Pillow Case 50 cm x 75cm,ROBLE/CH/SS/K,,,,,,0,1,0,Sheet Set K T300 Plain Charcoal -One Fitted Sheet 180 cm x 200 cm -One Top Sheet 270 cm x 290 cm -Two US Pillow Case 50 cm x 75cm
ROBLE/CH/SS/Q,3530135,code128,ENSO,101,85,505,2,VAT @5%,exclusive,,107,Sheet Set|Q|T300 Plain Charcoal|-One Fitted Sheet 180 cm x 200 cm -One Top Sheet 270 cm x 290 cm -Two US Pillow Case 50 cm x 75cm,ROBLE/CH/SS/Q,,,,,,0,1,0,Sheet Set Q T300 Plain Charcoal -One Fitted Sheet 180 cm x 200 cm -One Top Sheet 270 cm x 290 cm -Two US Pillow Case 50 cm x 75cm
ROBLE/CH/SS/F,3530136,code128,ENSO,101,75,465,2,VAT @5%,exclusive,,107,Sheet Set|F|T300 Plain Charcoal|-One Fitted Sheet 180 cm x 200 cm -One Top Sheet 270 cm x 290 cm -Two US Pillow Case 50 cm x 75cm,ROBLE/CH/SS/F,,,,,,0,1,0,Sheet Set F T300 Plain Charcoal -One Fitted Sheet 180 cm x 200 cm -One Top Sheet 270 cm x 290 cm -Two US Pillow Case 50 cm x 75cm
ROBLE/CH/SS/S,3530137,code128,ENSO,101,55,340,2,VAT @5%,exclusive,,107,Sheet Set|S|T300 Plain Charcoal|-One Fitted Sheet 100 cm x 200 cm -One Top Sheet -One US Pillow Case 50 cm x 75cm,ROBLE/CH/SS/S,,,,,,0,1,0,Sheet Set S T300 Plain Charcoal -One Fitted Sheet 100 cm x 200 cm -One Top Sheet -One US Pillow Case 50 cm x 75cm
ROBLE/CH/DC/SK-K,3530138,code128,ENSO,101,70,485,2,VAT @5%,exclusive,,102,Duvet Cover|SK-K|T300 Plain Charcoal|260 x 230,ROBLE/CH/DC/SK-K,,,,,,0,1,0,Duvet Cover SK-K T300 Plain Charcoal 260 x 230
ROBLE/CH/DC/Q-F,3530139,code128,ENSO,101,55,385,2,VAT @5%,exclusive,,102,Duvet Cover|Q-F|T300 Plain Charcoal|220 x 230,ROBLE/CH/DC/Q-F,,,,,,0,1,0,Duvet Cover Q-F T300 Plain Charcoal 220 x 230
ROBLE/CH/DC/S,3530140,code128,ENSO,101,40,285,2,VAT @5%,exclusive,,102,Duvet Cover|S|T300 Plain Charcoal|160 x 234,ROBLE/CH/DC/S,,,,,,0,1,0,Duvet Cover S T300 Plain Charcoal 160 x 234
ROBLE/CH/FS/SK,3530141,code128,ENSO,101,40,270,2,VAT @5%,exclusive,,106,Fitted Sheet|SK|T300 Plain Charcoal|200 x 200+34,ROBLE/CH/FS/SK,,,,,,0,1,0,Fitted Sheet SK T300 Plain Charcoal 200 x 200+34
ROBLE/CH/FS/K,3530142,code128,ENSO,101,35,250,2,VAT @5%,exclusive,,106,Fitted Sheet|K|T300 Plain Charcoal|180 x 200+34,ROBLE/CH/FS/K,,,,,,0,1,0,Fitted Sheet K T300 Plain Charcoal 180 x 200+34
ROBLE/CH/FS/Q,3530143,code128,ENSO,101,35,230,2,VAT @5%,exclusive,,106,Fitted Sheet|Q|T300 Plain Charcoal|160 x 200 + 30,ROBLE/CH/FS/Q,,,,,,0,1,0,Fitted Sheet Q T300 Plain Charcoal 160 x 200 + 30
ROBLE/CH/FS/F,3530144,code128,ENSO,101,30,210,2,VAT @5%,exclusive,,106,Fitted Sheet|F|T300 Plain Charcoal|140 x 200 + 30,ROBLE/CH/FS/F,,,,,,0,1,0,Fitted Sheet F T300 Plain Charcoal 140 x 200 + 30
ROBLE/CH/FS/S,3530145,code128,ENSO,101,25,170,2,VAT @5%,exclusive,,106,Fitted Sheet|S|T300 Plain Charcoal|100 x 200 + 30,ROBLE/CH/FS/S,,,,,,0,1,0,Fitted Sheet S T300 Plain Charcoal 100 x 200 + 30
ROBLE/CH/OPC/K,3530146,code128,ENSO,101,10,60,2,VAT @5%,exclusive,,106,Pillow Case Oxford|K|T300 Plain Charcoal|50 x 90,ROBLE/CH/OPC/K,,,,,,0,1,0,Pillow Case Oxford K T300 Plain Charcoal 50 x 90
ROBLE/CH/OPC/S,3530147,code128,ENSO,101,10,60,2,VAT @5%,exclusive,,106,Pillow Case Oxford|S|T300 Plain Charcoal|50 x 75,ROBLE/CH/OPC/S,,,,,,0,1,0,Pillow Case Oxford S T300 Plain Charcoal 50 x 75
ROBLE/CH/UPC/K,3530148,code128,ENSO,101,5,45,2,VAT @5%,exclusive,,106,Pillow Case US|K|T300 Plain Charcoal|50 x 90,ROBLE/CH/UPC/K,,,,,,0,1,0,Pillow Case US K T300 Plain Charcoal 50 x 90
ROBLE/CH/UPC/S,3530149,code128,ENSO,101,5,45,2,VAT @5%,exclusive,,106,Pillow Case US|S|T300 Plain Charcoal|50 x 75,ROBLE/CH/UPC/S,,,,,,0,1,0,Pillow Case US S T300 Plain Charcoal 50 x 75
ARGAN/WT/DS/SK-K,3530150,code128,ENSO,101,125,795,2,VAT @5%,exclusive,,107,Duvet Set|SK-K|T300 3 Line Embroidery White|-One Duvet Cover 260 cm x 230 cm -Two Oxfor Pillow Case 50 cm x 75cm,ARGAN/WT/DS/SK-K,,,,,,0,1,0,Duvet Set SK-K T300 3 Line Embroidery White -One Duvet Cover 260 cm x 230 cm -Two Oxfor Pillow Case 50 cm x 75cm
ARGAN/WT/DS/Q-F,3530151,code128,ENSO,101,105,680,2,VAT @5%,exclusive,,107,Duvet Set|Q-F|T300 3 Line Embroidery White|-One Duvet Cover 260 cm x 230 cm -Two Oxfor Pillow Case 50 cm x 75cm,ARGAN/WT/DS/Q-F,,,,,,0,1,0,Duvet Set Q-F T300 3 Line Embroidery White -One Duvet Cover 260 cm x 230 cm -Two Oxfor Pillow Case 50 cm x 75cm
ARGAN/WT/DS/S,3530152,code128,ENSO,101,85,550,2,VAT @5%,exclusive,,107,Duvet Set|S|T300 3 Line Embroidery White|-One Duvet Cover 160 cm x 230 cm -One Oxfor Pillow Case 50 cm x 75cm,ARGAN/WT/DS/S,,,,,,0,1,0,Duvet Set S T300 3 Line Embroidery White -One Duvet Cover 160 cm x 230 cm -One Oxfor Pillow Case 50 cm x 75cm
ARGAN/WT/SS/SK,3530153,code128,ENSO,101,125,815,2,VAT @5%,exclusive,,107,Sheet Set|SK|T300 3 Line Embroidery White|-One Fitted Sheet 180 cm x 200 cm -One Top Sheet 270 cm x 290 cm -Two US Pillow Case 50 cm x 75cm,ARGAN/WT/SS/SK,,,,,,0,1,0,Sheet Set SK T300 3 Line Embroidery White -One Fitted Sheet 180 cm x 200 cm -One Top Sheet 270 cm x 290 cm -Two US Pillow Case 50 cm x 75cm
ARGAN/WT/SS/K,3530154,code128,ENSO,101,120,795,2,VAT @5%,exclusive,,107,Sheet Set|K|T300 3 Line Embroidery White|-One Fitted Sheet 180 cm x 200 cm -One Top Sheet 270 cm x 290 cm -Two US Pillow Case 50 cm x 75cm,ARGAN/WT/SS/K,,,,,,0,1,0,Sheet Set K T300 3 Line Embroidery White -One Fitted Sheet 180 cm x 200 cm -One Top Sheet 270 cm x 290 cm -Two US Pillow Case 50 cm x 75cm
ARGAN/WT/SS/Q,3530155,code128,ENSO,101,110,705,2,VAT @5%,exclusive,,107,Sheet Set|Q|T300 3 Line Embroidery White|-One Fitted Sheet 180 cm x 200 cm -One Top Sheet 270 cm x 290 cm -Two US Pillow Case 50 cm x 75cm,ARGAN/WT/SS/Q,,,,,,0,1,0,Sheet Set Q T300 3 Line Embroidery White -One Fitted Sheet 180 cm x 200 cm -One Top Sheet 270 cm x 290 cm -Two US Pillow Case 50 cm x 75cm
ARGAN/WT/SS/F,3530156,code128,ENSO,101,105,685,2,VAT @5%,exclusive,,107,Sheet Set|F|T300 3 Line Embroidery White|-One Fitted Sheet 180 cm x 200 cm -One Top Sheet 270 cm x 290 cm -Two US Pillow Case 50 cm x 75cm,ARGAN/WT/SS/F,,,,,,0,1,0,Sheet Set F T300 3 Line Embroidery White -One Fitted Sheet 180 cm x 200 cm -One Top Sheet 270 cm x 290 cm -Two US Pillow Case 50 cm x 75cm
ARGAN/WT/SS/S,3530157,code128,ENSO,101,80,535,2,VAT @5%,exclusive,,107,Sheet Set|S|T300 3 Line Embroidery White|-One Fitted Sheet 100 cm x 200 cm -One Top Sheet -One US Pillow Case 50 cm x 75cm,ARGAN/WT/SS/S,,,,,,0,1,0,Sheet Set S T300 3 Line Embroidery White -One Fitted Sheet 100 cm x 200 cm -One Top Sheet -One US Pillow Case 50 cm x 75cm
ARGAN/WT/DC/SK-K,3530158,code128,ENSO,101,90,680,2,VAT @5%,exclusive,,102,Duvet Cover|SK-K|T300 3 Line Embroidery White|260 x 230,ARGAN/WT/DC/SK-K,,,,,,0,1,0,Duvet Cover SK-K T300 3 Line Embroidery White 260 x 230
ARGAN/WT/DC/Q-F,3530159,code128,ENSO,101,75,545,2,VAT @5%,exclusive,,102,Duvet Cover|Q-F|T300 3 Line Embroidery White|220 x 230,ARGAN/WT/DC/Q-F,,,,,,0,1,0,Duvet Cover Q-F T300 3 Line Embroidery White 220 x 230
ARGAN/WT/DC/S,3530160,code128,ENSO,101,70,515,2,VAT @5%,exclusive,,102,Duvet Cover|S|T300 3 Line Embroidery White|160 x 233,ARGAN/WT/DC/S,,,,,,0,1,0,Duvet Cover S T300 3 Line Embroidery White 160 x 233
ARGAN/WT/TS/SK-K,3530161,code128,ENSO,101,60,430,2,VAT @5%,exclusive,,106,Top Sheet|SK-K|T300 3 Line Embroidery White|270 x 290,ARGAN/WT/TS/SK-K,,,,,,0,1,0,Top Sheet SK-K T300 3 Line Embroidery White 270 x 290
ARGAN/WT/TS/Q-F,3530162,code128,ENSO,101,45,355,2,VAT @5%,exclusive,,106,Top Sheet|Q-F|T300 3 Line Embroidery White|220 x 290,ARGAN/WT/TS/Q-F,,,,,,0,1,0,Top Sheet Q-F T300 3 Line Embroidery White 220 x 290
ARGAN/WT/TS/S,3530163,code128,ENSO,101,35,270,2,VAT @5%,exclusive,,106,Top Sheet|S|T300 3 Line Embroidery White|160 x 290,ARGAN/WT/TS/S,,,,,,0,1,0,Top Sheet S T300 3 Line Embroidery White 160 x 290
ARGAN/WT/FS/SK,3530164,code128,ENSO,101,45,325,2,VAT @5%,exclusive,,106,Fitted Sheet|SK|T300 3 Line Embroidery White|200 x 200+33,ARGAN/WT/FS/SK,,,,,,0,1,0,Fitted Sheet SK T300 3 Line Embroidery White 200 x 200+33
ARGAN/WT/FS/K,3530165,code128,ENSO,101,40,305,2,VAT @5%,exclusive,,106,Fitted Sheet|K|T300 3 Line Embroidery White|180 x 200+33,ARGAN/WT/FS/K,,,,,,0,1,0,Fitted Sheet K T300 3 Line Embroidery White 180 x 200+33
ARGAN/WT/FS/Q,3530166,code128,ENSO,101,35,280,2,VAT @5%,exclusive,,106,Fitted Sheet|Q|T300 3 Line Embroidery White|160 x 200 + 30,ARGAN/WT/FS/Q,,,,,,0,1,0,Fitted Sheet Q T300 3 Line Embroidery White 160 x 200 + 30
ARGAN/WT/FS/S,3530167,code128,ENSO,101,35,255,2,VAT @5%,exclusive,,106,Fitted Sheet|S|T300 3 Line Embroidery White|100 x 200 + 30,ARGAN/WT/FS/S,,,,,,0,1,0,Fitted Sheet S T300 3 Line Embroidery White 100 x 200 + 30
ARGAN/WT/OPC/K,3530168,code128,ENSO,101,15,120,2,VAT @5%,exclusive,,106,Pillow Case Oxford|K|T300 3 Line Embroidery White|50 x 90,ARGAN/WT/OPC/K,,,,,,0,1,0,Pillow Case Oxford K T300 3 Line Embroidery White 50 x 90
ARGAN/WT/OPC/S,3530169,code128,ENSO,101,15,120,2,VAT @5%,exclusive,,106,Pillow Case Oxford|S|T300 3 Line Embroidery White|50 x 75,ARGAN/WT/OPC/S,,,,,,0,1,0,Pillow Case Oxford S T300 3 Line Embroidery White 50 x 75
ARGAN/WT/UPC/K,3530170,code128,ENSO,101,10,90,2,VAT @5%,exclusive,,106,Pillow Case US|K|T300 3 Line Embroidery White|50 x 90,ARGAN/WT/UPC/K,,,,,,0,1,0,Pillow Case US K T300 3 Line Embroidery White 50 x 90
ARGAN/WT/UPC/S,3530171,code128,ENSO,101,10,90,2,VAT @5%,exclusive,,106,Pillow Case US|S|T300 3 Line Embroidery White|50 x 75,ARGAN/WT/UPC/S,,,,,,0,1,0,Pillow Case US S T300 3 Line Embroidery White 50 x 75
ARGAN/CH/DS/SK-K,3530172,code128,ENSO,101,125,795,2,VAT @5%,exclusive,,107,Duvet Set|SK-K|T300 3 Line Embroidery Charcoal|-One Duvet Cover 260 cm x 230 cm -Two Oxfor Pillow Case 50 cm x 75cm,ARGAN/CH/DS/SK-K,,,,,,0,1,0,Duvet Set SK-K T300 3 Line Embroidery Charcoal -One Duvet Cover 260 cm x 230 cm -Two Oxfor Pillow Case 50 cm x 75cm
ARGAN/CH/DS/Q-F,3530173,code128,ENSO,101,105,680,2,VAT @5%,exclusive,,107,Duvet Set|Q-F|T300 3 Line Embroidery Charcoal|-One Duvet Cover 260 cm x 230 cm -Two Oxfor Pillow Case 50 cm x 75cm,ARGAN/CH/DS/Q-F,,,,,,0,1,0,Duvet Set Q-F T300 3 Line Embroidery Charcoal -One Duvet Cover 260 cm x 230 cm -Two Oxfor Pillow Case 50 cm x 75cm
ARGAN/CH/DS/S,3530174,code128,ENSO,101,85,550,2,VAT @5%,exclusive,,107,Duvet Set|S|T300 3 Line Embroidery Charcoal|-One Duvet Cover 160 cm x 230 cm -One Oxfor Pillow Case 50 cm x 75cm,ARGAN/CH/DS/S,,,,,,0,1,0,Duvet Set S T300 3 Line Embroidery Charcoal -One Duvet Cover 160 cm x 230 cm -One Oxfor Pillow Case 50 cm x 75cm
ARGAN/CH/SS/SK,3530175,code128,ENSO,101,125,815,2,VAT @5%,exclusive,,107,Sheet Set|SK|T300 3 Line Embroidery Charcoal|-One Fitted Sheet 180 cm x 200 cm -One Top Sheet 270 cm x 290 cm -Two US Pillow Case 50 cm x 75cm,ARGAN/CH/SS/SK,,,,,,0,1,0,Sheet Set SK T300 3 Line Embroidery Charcoal -One Fitted Sheet 180 cm x 200 cm -One Top Sheet 270 cm x 290 cm -Two US Pillow Case 50 cm x 75cm
ARGAN/CH/SS/K,3530176,code128,ENSO,101,120,795,2,VAT @5%,exclusive,,107,Sheet Set|K|T300 3 Line Embroidery Charcoal|-One Fitted Sheet 180 cm x 200 cm -One Top Sheet 270 cm x 290 cm -Two US Pillow Case 50 cm x 75cm,ARGAN/CH/SS/K,,,,,,0,1,0,Sheet Set K T300 3 Line Embroidery Charcoal -One Fitted Sheet 180 cm x 200 cm -One Top Sheet 270 cm x 290 cm -Two US Pillow Case 50 cm x 75cm
ARGAN/CH/SS/Q,3530177,code128,ENSO,101,110,705,2,VAT @5%,exclusive,,107,Sheet Set|Q|T300 3 Line Embroidery Charcoal|-One Fitted Sheet 180 cm x 200 cm -One Top Sheet 270 cm x 290 cm -Two US Pillow Case 50 cm x 75cm,ARGAN/CH/SS/Q,,,,,,0,1,0,Sheet Set Q T300 3 Line Embroidery Charcoal -One Fitted Sheet 180 cm x 200 cm -One Top Sheet 270 cm x 290 cm -Two US Pillow Case 50 cm x 75cm
ARGAN/CH/SS/F,3530178,code128,ENSO,101,105,685,2,VAT @5%,exclusive,,107,Sheet Set|F|T300 3 Line Embroidery Charcoal|-One Fitted Sheet 180 cm x 200 cm -One Top Sheet 270 cm x 290 cm -Two US Pillow Case 50 cm x 75cm,ARGAN/CH/SS/F,,,,,,0,1,0,Sheet Set F T300 3 Line Embroidery Charcoal -One Fitted Sheet 180 cm x 200 cm -One Top Sheet 270 cm x 290 cm -Two US Pillow Case 50 cm x 75cm
ARGAN/CH/SS/S,3530179,code128,ENSO,101,80,535,2,VAT @5%,exclusive,,107,Sheet Set|S|T300 3 Line Embroidery Charcoal|-One Fitted Sheet 100 cm x 200 cm -One Top Sheet -One US Pillow Case 50 cm x 75cm,ARGAN/CH/SS/S,,,,,,0,1,0,Sheet Set S T300 3 Line Embroidery Charcoal -One Fitted Sheet 100 cm x 200 cm -One Top Sheet -One US Pillow Case 50 cm x 75cm
ARGAN/CH/DC/SK-K,3530180,code128,ENSO,101,90,680,2,VAT @5%,exclusive,,102,Duvet Cover|SK-K|T300 3 Line Embroidery Charcoal|260 x 230,ARGAN/CH/DC/SK-K,,,,,,0,1,0,Duvet Cover SK-K T300 3 Line Embroidery Charcoal 260 x 230
ARGAN/CH/DC/Q-F,3530181,code128,ENSO,101,75,545,2,VAT @5%,exclusive,,102,Duvet Cover|Q-F|T300 3 Line Embroidery Charcoal|220 x 230,ARGAN/CH/DC/Q-F,,,,,,0,1,0,Duvet Cover Q-F T300 3 Line Embroidery Charcoal 220 x 230
ARGAN/CH/DC/S,3530182,code128,ENSO,101,70,515,2,VAT @5%,exclusive,,102,Duvet Cover|S|T300 3 Line Embroidery Charcoal|160 x 233,ARGAN/CH/DC/S,,,,,,0,1,0,Duvet Cover S T300 3 Line Embroidery Charcoal 160 x 233
ARGAN/CH/TS/SK-K,3530183,code128,ENSO,101,60,430,2,VAT @5%,exclusive,,106,Top Sheet|SK-K|T300 3 Line Embroidery Charcoal|270 x 290,ARGAN/CH/TS/SK-K,,,,,,0,1,0,Top Sheet SK-K T300 3 Line Embroidery Charcoal 270 x 290
ARGAN/CH/TS/Q-F,3530184,code128,ENSO,101,45,355,2,VAT @5%,exclusive,,106,Top Sheet|Q-F|T300 3 Line Embroidery Charcoal|220 x 290,ARGAN/CH/TS/Q-F,,,,,,0,1,0,Top Sheet Q-F T300 3 Line Embroidery Charcoal 220 x 290
ARGAN/CH/TS/S,3530185,code128,ENSO,101,35,270,2,VAT @5%,exclusive,,106,Top Sheet|S|T300 3 Line Embroidery Charcoal|160 x 290,ARGAN/CH/TS/S,,,,,,0,1,0,Top Sheet S T300 3 Line Embroidery Charcoal 160 x 290
ARGAN/CH/FS/SK,3530186,code128,ENSO,101,45,325,2,VAT @5%,exclusive,,106,Fitted Sheet|SK|T300 3 Line Embroidery Charcoal|200 x 200+33,ARGAN/CH/FS/SK,,,,,,0,1,0,Fitted Sheet SK T300 3 Line Embroidery Charcoal 200 x 200+33
ARGAN/CH/FS/K,3530187,code128,ENSO,101,40,305,2,VAT @5%,exclusive,,106,Fitted Sheet|K|T300 3 Line Embroidery Charcoal|180 x 200+33,ARGAN/CH/FS/K,,,,,,0,1,0,Fitted Sheet K T300 3 Line Embroidery Charcoal 180 x 200+33
ARGAN/CH/FS/Q,3530188,code128,ENSO,101,35,280,2,VAT @5%,exclusive,,106,Fitted Sheet|Q|T300 3 Line Embroidery Charcoal|160 x 200 + 30,ARGAN/CH/FS/Q,,,,,,0,1,0,Fitted Sheet Q T300 3 Line Embroidery Charcoal 160 x 200 + 30
ARGAN/CH/FS/S,3530189,code128,ENSO,101,35,255,2,VAT @5%,exclusive,,106,Fitted Sheet|S|T300 3 Line Embroidery Charcoal|100 x 200 + 30,ARGAN/CH/FS/S,,,,,,0,1,0,Fitted Sheet S T300 3 Line Embroidery Charcoal 100 x 200 + 30
ARGAN/CH/OPC/K,3530190,code128,ENSO,101,15,120,2,VAT @5%,exclusive,,106,Pillow Case Oxford|K|T300 3 Line Embroidery Charcoal|50 x 90,ARGAN/CH/OPC/K,,,,,,0,1,0,Pillow Case Oxford K T300 3 Line Embroidery Charcoal 50 x 90
ARGAN/CH/OPC/S,3530191,code128,ENSO,101,15,120,2,VAT @5%,exclusive,,106,Pillow Case Oxford|S|T300 3 Line Embroidery Charcoal|50 x 75,ARGAN/CH/OPC/S,,,,,,0,1,0,Pillow Case Oxford S T300 3 Line Embroidery Charcoal 50 x 75
ARGAN/CH/UPC/K,3530192,code128,ENSO,101,10,90,2,VAT @5%,exclusive,,106,Pillow Case US|K|T300 3 Line Embroidery Charcoal|50 x 90,ARGAN/CH/UPC/K,,,,,,0,1,0,Pillow Case US K T300 3 Line Embroidery Charcoal 50 x 90
ARGAN/CH/UPC/S,3530193,code128,ENSO,101,10,90,2,VAT @5%,exclusive,,106,Pillow Case US|S|T300 3 Line Embroidery Charcoal|50 x 75,ARGAN/CH/UPC/S,,,,,,0,1,0,Pillow Case US S T300 3 Line Embroidery Charcoal 50 x 75
CEDRO/WT/DS/SK-K,3530194,code128,ENSO,101,115,735,2,VAT @5%,exclusive,,107,Duvet Set|SK-K|T300 Brio 2 Line Embroidery White|-One Duvet Cover 260 cm x 230 cm -Two Oxfor Pillow Case 50 cm x 75cm,CEDRO/WT/DS/SK-K,,,,,,0,1,0,Duvet Set SK-K T300 Brio 2 Line Embroidery White -One Duvet Cover 260 cm x 230 cm -Two Oxfor Pillow Case 50 cm x 75cm
CEDRO/WT/DS/Q-F,3530195,code128,ENSO,101,100,650,2,VAT @5%,exclusive,,107,Duvet Set|Q-F|T300 Brio 2 Line Embroidery White|-One Duvet Cover 260 cm x 230 cm -Two Oxfor Pillow Case 50 cm x 75cm,CEDRO/WT/DS/Q-F,,,,,,0,1,0,Duvet Set Q-F T300 Brio 2 Line Embroidery White -One Duvet Cover 260 cm x 230 cm -Two Oxfor Pillow Case 50 cm x 75cm
CEDRO/WT/DS/S,3530196,code128,ENSO,101,15,95,2,VAT @5%,exclusive,,107,Duvet Set|S|T300 Brio 2 Line Embroidery White|-One Duvet Cover 160 cm x 230 cm -One Oxfor Pillow Case 50 cm x 75cm,CEDRO/WT/DS/S,,,,,,0,1,0,Duvet Set S T300 Brio 2 Line Embroidery White -One Duvet Cover 160 cm x 230 cm -One Oxfor Pillow Case 50 cm x 75cm
CEDRO/WT/SS/SK,3530197,code128,ENSO,101,110,715,2,VAT @5%,exclusive,,107,Sheet Set|SK|T300 Brio 2 Line Embroidery White|-One Fitted Sheet 180 cm x 200 cm -One Top Sheet 270 cm x 290 cm -Two US Pillow Case 50 cm x 75cm,CEDRO/WT/SS/SK,,,,,,0,1,0,Sheet Set SK T300 Brio 2 Line Embroidery White -One Fitted Sheet 180 cm x 200 cm -One Top Sheet 270 cm x 290 cm -Two US Pillow Case 50 cm x 75cm
CEDRO/WT/SS/K,3530198,code128,ENSO,101,105,695,2,VAT @5%,exclusive,,107,Sheet Set|K|T300 Brio 2 Line Embroidery White|-One Fitted Sheet 180 cm x 200 cm -One Top Sheet 270 cm x 290 cm -Two US Pillow Case 50 cm x 75cm,CEDRO/WT/SS/K,,,,,,0,1,0,Sheet Set K T300 Brio 2 Line Embroidery White -One Fitted Sheet 180 cm x 200 cm -One Top Sheet 270 cm x 290 cm -Two US Pillow Case 50 cm x 75cm
CEDRO/WT/SS/Q,3530199,code128,ENSO,101,95,610,2,VAT @5%,exclusive,,107,Sheet Set|Q|T300 Brio 2 Line Embroidery White|-One Fitted Sheet 180 cm x 200 cm -One Top Sheet 270 cm x 290 cm -Two US Pillow Case 50 cm x 75cm,CEDRO/WT/SS/Q,,,,,,0,1,0,Sheet Set Q T300 Brio 2 Line Embroidery White -One Fitted Sheet 180 cm x 200 cm -One Top Sheet 270 cm x 290 cm -Two US Pillow Case 50 cm x 75cm
CEDRO/WT/SS/F,3530200,code128,ENSO,101,60,400,2,VAT @5%,exclusive,,107,Sheet Set|F|T300 Brio 2 Line Embroidery White|-One Fitted Sheet 180 cm x 200 cm -One Top Sheet 270 cm x 290 cm -Two US Pillow Case 50 cm x 75cm,CEDRO/WT/SS/F,,,,,,0,1,0,Sheet Set F T300 Brio 2 Line Embroidery White -One Fitted Sheet 180 cm x 200 cm -One Top Sheet 270 cm x 290 cm -Two US Pillow Case 50 cm x 75cm
CEDRO/WT/SS/S,3530201,code128,ENSO,101,10,65,2,VAT @5%,exclusive,,107,Sheet Set|S|T300 Brio 2 Line Embroidery White|-One Fitted Sheet 100 cm x 200 cm -One Top Sheet -One US Pillow Case 50 cm x 75cm,CEDRO/WT/SS/S,,,,,,0,1,0,Sheet Set S T300 Brio 2 Line Embroidery White -One Fitted Sheet 100 cm x 200 cm -One Top Sheet -One US Pillow Case 50 cm x 75cm
CEDRO/WT/DC/SK-K,3530202,code128,ENSO,101,85,625,2,VAT @5%,exclusive,,102,Duvet Cover|SK-K|T300 Brio 2 Line Embroidery White|260 x 230,CEDRO/WT/DC/SK-K,,,,,,0,1,0,Duvet Cover SK-K T300 Brio 2 Line Embroidery White 260 x 230
CEDRO/WT/DC/Q-F,3530203,code128,ENSO,101,70,525,2,VAT @5%,exclusive,,102,Duvet Cover|Q-F|T300 Brio 2 Line Embroidery White|220 x 230,CEDRO/WT/DC/Q-F,,,,,,0,1,0,Duvet Cover Q-F T300 Brio 2 Line Embroidery White 220 x 230
CEDRO/WT/TS/SK-K,3530204,code128,ENSO,101,50,385,2,VAT @5%,exclusive,,106,Top Sheet|SK-K|T300 Brio 2 Line Embroidery White|270 x 290,CEDRO/WT/TS/SK-K,,,,,,0,1,0,Top Sheet SK-K T300 Brio 2 Line Embroidery White 270 x 290
CEDRO/WT/TS/Q-F,3530205,code128,ENSO,101,40,310,2,VAT @5%,exclusive,,106,Top Sheet|Q-F|T300 Brio 2 Line Embroidery White|220 x 290,CEDRO/WT/TS/Q-F,,,,,,0,1,0,Top Sheet Q-F T300 Brio 2 Line Embroidery White 220 x 290
CEDRO/WT/FS/SK,3530206,code128,ENSO,101,40,285,2,VAT @5%,exclusive,,106,Fitted Sheet|SK|T300 Brio 2 Line Embroidery White|200 x 200+35,CEDRO/WT/FS/SK,,,,,,0,1,0,Fitted Sheet SK T300 Brio 2 Line Embroidery White 200 x 200+35
CEDRO/WT/FS/K,3530207,code128,ENSO,101,35,265,2,VAT @5%,exclusive,,106,Fitted Sheet|K|T300 Brio 2 Line Embroidery White|180 x 200+35,CEDRO/WT/FS/K,,,,,,0,1,0,Fitted Sheet K T300 Brio 2 Line Embroidery White 180 x 200+35
CEDRO/WT/FS/Q,3530208,code128,ENSO,101,35,245,2,VAT @5%,exclusive,,106,Fitted Sheet|Q|T300 Brio 2 Line Embroidery White|160 x 200 + 30,CEDRO/WT/FS/Q,,,,,,0,1,0,Fitted Sheet Q T300 Brio 2 Line Embroidery White 160 x 200 + 30
CEDRO/WT/OPC/K,3530209,code128,ENSO,101,15,110,2,VAT @5%,exclusive,,106,Pillow Case Oxford|K|T300 Brio 2 Line Embroidery White|50 x 90,CEDRO/WT/OPC/K,,,,,,0,1,0,Pillow Case Oxford K T300 Brio 2 Line Embroidery White 50 x 90
CEDRO/WT/OPC/S,3530210,code128,ENSO,101,15,110,2,VAT @5%,exclusive,,106,Pillow Case Oxford|S|T300 Brio 2 Line Embroidery White|50 x 75,CEDRO/WT/OPC/S,,,,,,0,1,0,Pillow Case Oxford S T300 Brio 2 Line Embroidery White 50 x 75
CEDRO/WT/UPC/K,3530211,code128,ENSO,101,10,75,2,VAT @5%,exclusive,,106,Pillow Case US|K|T300 Brio 2 Line Embroidery White|50 x 90,CEDRO/WT/UPC/K,,,,,,0,1,0,Pillow Case US K T300 Brio 2 Line Embroidery White 50 x 90
CEDRO/WT/UPC/S,3530212,code128,ENSO,101,10,75,2,VAT @5%,exclusive,,106,Pillow Case US|S|T300 Brio 2 Line Embroidery White|50 x 75,CEDRO/WT/UPC/S,,,,,,0,1,0,Pillow Case US S T300 Brio 2 Line Embroidery White 50 x 75
OLIVE/WT/DS/SK-K,3530213,code128,ENSO,101,130,925,2,VAT @5%,exclusive,,107,Duvet Set|SK-K|T300 2 Line Hem Stitch White|-One Duvet Cover 260 cm x 230 cm -Two Oxfor Pillow Case 50 cm x 75cm,OLIVE/WT/DS/SK-K,,,,,,0,1,0,Duvet Set SK-K T300 2 Line Hem Stitch White -One Duvet Cover 260 cm x 230 cm -Two Oxfor Pillow Case 50 cm x 75cm
OLIVE/WT/DS/Q-F,3530214,code128,ENSO,101,155,1080,2,VAT @5%,exclusive,,107,Duvet Set|Q-F|T300 2 Line Hem Stitch White|-One Duvet Cover 260 cm x 230 cm -Two Oxfor Pillow Case 50 cm x 75cm,OLIVE/WT/DS/Q-F,,,,,,0,1,0,Duvet Set Q-F T300 2 Line Hem Stitch White -One Duvet Cover 260 cm x 230 cm -Two Oxfor Pillow Case 50 cm x 75cm
OLIVE/WT/DS/S,3530215,code128,ENSO,101,20,135,2,VAT @5%,exclusive,,107,Duvet Set|S|T300 2 Line Hem Stitch White|-One Duvet Cover 160 cm x 230 cm -One Oxfor Pillow Case 50 cm x 75cm,OLIVE/WT/DS/S,,,,,,0,1,0,Duvet Set S T300 2 Line Hem Stitch White -One Duvet Cover 160 cm x 230 cm -One Oxfor Pillow Case 50 cm x 75cm
OLIVE/WT/SS/SK,3530216,code128,ENSO,101,130,900,2,VAT @5%,exclusive,,107,Sheet Set|SK|T300 2 Line Hem Stitch White|-One Fitted Sheet 180 cm x 200 cm -One Top Sheet 270 cm x 290 cm -Two US Pillow Case 50 cm x 75cm,OLIVE/WT/SS/SK,,,,,,0,1,0,Sheet Set SK T300 2 Line Hem Stitch White -One Fitted Sheet 180 cm x 200 cm -One Top Sheet 270 cm x 290 cm -Two US Pillow Case 50 cm x 75cm
OLIVE/WT/SS/K,3530217,code128,ENSO,101,125,880,2,VAT @5%,exclusive,,107,Sheet Set|K|T300 2 Line Hem Stitch White|-One Fitted Sheet 180 cm x 200 cm -One Top Sheet 270 cm x 290 cm -Two US Pillow Case 50 cm x 75cm,OLIVE/WT/SS/K,,,,,,0,1,0,Sheet Set K T300 2 Line Hem Stitch White -One Fitted Sheet 180 cm x 200 cm -One Top Sheet 270 cm x 290 cm -Two US Pillow Case 50 cm x 75cm
OLIVE/WT/SS/Q,3530218,code128,ENSO,101,115,790,2,VAT @5%,exclusive,,107,Sheet Set|Q|T300 2 Line Hem Stitch White|-One Fitted Sheet 180 cm x 200 cm -One Top Sheet 270 cm x 290 cm -Two US Pillow Case 50 cm x 75cm,OLIVE/WT/SS/Q,,,,,,0,1,0,Sheet Set Q T300 2 Line Hem Stitch White -One Fitted Sheet 180 cm x 200 cm -One Top Sheet 270 cm x 290 cm -Two US Pillow Case 50 cm x 75cm
OLIVE/WT/SS/F,3530219,code128,ENSO,101,75,525,2,VAT @5%,exclusive,,107,Sheet Set|F|T300 2 Line Hem Stitch White|-One Fitted Sheet 180 cm x 200 cm -One Top Sheet 270 cm x 290 cm -Two US Pillow Case 50 cm x 75cm,OLIVE/WT/SS/F,,,,,,0,1,0,Sheet Set F T300 2 Line Hem Stitch White -One Fitted Sheet 180 cm x 200 cm -One Top Sheet 270 cm x 290 cm -Two US Pillow Case 50 cm x 75cm
OLIVE/WT/SS/S,3530220,code128,ENSO,101,10,85,2,VAT @5%,exclusive,,107,Sheet Set|S|T300 2 Line Hem Stitch White|-One Fitted Sheet 100 cm x 200 cm -One Top Sheet -One US Pillow Case 50 cm x 75cm,OLIVE/WT/SS/S,,,,,,0,1,0,Sheet Set S T300 2 Line Hem Stitch White -One Fitted Sheet 100 cm x 200 cm -One Top Sheet -One US Pillow Case 50 cm x 75cm
OLIVE/WT/DC/SK-K,3530221,code128,ENSO,101,95,745,2,VAT @5%,exclusive,,102,Duvet Cover|SK-K|T300 2 Line Hem Stitch White|260 x 230,OLIVE/WT/DC/SK-K,,,,,,0,1,0,Duvet Cover SK-K T300 2 Line Hem Stitch White 260 x 230
OLIVE/WT/DC/Q-F,3530222,code128,ENSO,101,115,920,2,VAT @5%,exclusive,,102,Duvet Cover|Q-F|T300 2 Line Hem Stitch White|220 x 230,OLIVE/WT/DC/Q-F,,,,,,0,1,0,Duvet Cover Q-F T300 2 Line Hem Stitch White 220 x 230
OLIVE/WT/TS/SK-K,3530223,code128,ENSO,101,60,490,2,VAT @5%,exclusive,,106,Top Sheet|SK-K|T300 2 Line Hem Stitch White|270 x 290,OLIVE/WT/TS/SK-K,,,,,,0,1,0,Top Sheet SK-K T300 2 Line Hem Stitch White 270 x 290
OLIVE/WT/TS/Q-F,3530224,code128,ENSO,101,50,410,2,VAT @5%,exclusive,,106,Top Sheet|Q-F|T300 2 Line Hem Stitch White|220 x 290,OLIVE/WT/TS/Q-F,,,,,,0,1,0,Top Sheet Q-F T300 2 Line Hem Stitch White 220 x 290
OLIVE/WT/FS/SK,3530225,code128,ENSO,101,45,350,2,VAT @5%,exclusive,,106,Fitted Sheet|SK|T300 2 Line Hem Stitch White|200 x 200+36,OLIVE/WT/FS/SK,,,,,,0,1,0,Fitted Sheet SK T300 2 Line Hem Stitch White 200 x 200+36
OLIVE/WT/FS/K,3530226,code128,ENSO,101,40,325,2,VAT @5%,exclusive,,106,Fitted Sheet|K|T300 2 Line Hem Stitch White|180 x 200+36,OLIVE/WT/FS/K,,,,,,0,1,0,Fitted Sheet K T300 2 Line Hem Stitch White 180 x 200+36
OLIVE/WT/FS/Q,3530227,code128,ENSO,101,35,300,2,VAT @5%,exclusive,,106,Fitted Sheet|Q|T300 2 Line Hem Stitch White|160 x 200 + 30,OLIVE/WT/FS/Q,,,,,,0,1,0,Fitted Sheet Q T300 2 Line Hem Stitch White 160 x 200 + 30
OLIVE/WT/OPC/K,3530228,code128,ENSO,101,20,155,2,VAT @5%,exclusive,,106,Pillow Case Oxford|K|T300 2 Line Hem Stitch White|50 x 90,OLIVE/WT/OPC/K,,,,,,0,1,0,Pillow Case Oxford K T300 2 Line Hem Stitch White 50 x 90
OLIVE/WT/OPC/S,3530229,code128,ENSO,101,20,155,2,VAT @5%,exclusive,,106,Pillow Case Oxford|S|T300 2 Line Hem Stitch White|50 x 75,OLIVE/WT/OPC/S,,,,,,0,1,0,Pillow Case Oxford S T300 2 Line Hem Stitch White 50 x 75
OLIVE/WT/UPC/K,3530230,code128,ENSO,101,10,95,2,VAT @5%,exclusive,,106,Pillow Case US|K|T300 2 Line Hem Stitch White|50 x 90,OLIVE/WT/UPC/K,,,,,,0,1,0,Pillow Case US K T300 2 Line Hem Stitch White 50 x 90
OLIVE/WT/UPC/S,3530231,code128,ENSO,101,10,95,2,VAT @5%,exclusive,,106,Pillow Case US|S|T300 2 Line Hem Stitch White|50 x 75,OLIVE/WT/UPC/S,,,,,,0,1,0,Pillow Case US S T300 2 Line Hem Stitch White 50 x 75
OLIVE/CH/DS/SK-K,3530232,code128,ENSO,101,130,925,2,VAT @5%,exclusive,,107,Duvet Set|SK-K|T300 2 Line Hem Stitch Charcoal|-One Duvet Cover 260 cm x 230 cm -Two Oxfor Pillow Case 50 cm x 75cm,OLIVE/CH/DS/SK-K,,,,,,0,1,0,Duvet Set SK-K T300 2 Line Hem Stitch Charcoal -One Duvet Cover 260 cm x 230 cm -Two Oxfor Pillow Case 50 cm x 75cm
OLIVE/CH/DS/Q-F,3530233,code128,ENSO,101,155,1080,2,VAT @5%,exclusive,,107,Duvet Set|Q-F|T300 2 Line Hem Stitch Charcoal|-One Duvet Cover 260 cm x 230 cm -Two Oxfor Pillow Case 50 cm x 75cm,OLIVE/CH/DS/Q-F,,,,,,0,1,0,Duvet Set Q-F T300 2 Line Hem Stitch Charcoal -One Duvet Cover 260 cm x 230 cm -Two Oxfor Pillow Case 50 cm x 75cm
OLIVE/CH/DS/S,3530234,code128,ENSO,101,20,135,2,VAT @5%,exclusive,,107,Duvet Set|S|T300 2 Line Hem Stitch Charcoal|-One Duvet Cover 160 cm x 230 cm -One Oxfor Pillow Case 50 cm x 75cm,OLIVE/CH/DS/S,,,,,,0,1,0,Duvet Set S T300 2 Line Hem Stitch Charcoal -One Duvet Cover 160 cm x 230 cm -One Oxfor Pillow Case 50 cm x 75cm
OLIVE/CH/SS/SK,3530235,code128,ENSO,101,130,900,2,VAT @5%,exclusive,,107,Sheet Set|SK|T300 2 Line Hem Stitch Charcoal|-One Fitted Sheet 180 cm x 200 cm -One Top Sheet 270 cm x 290 cm -Two US Pillow Case 50 cm x 75cm,OLIVE/CH/SS/SK,,,,,,0,1,0,Sheet Set SK T300 2 Line Hem Stitch Charcoal -One Fitted Sheet 180 cm x 200 cm -One Top Sheet 270 cm x 290 cm -Two US Pillow Case 50 cm x 75cm
OLIVE/CH/SS/K,3530236,code128,ENSO,101,125,880,2,VAT @5%,exclusive,,107,Sheet Set|K|T300 2 Line Hem Stitch Charcoal|-One Fitted Sheet 180 cm x 200 cm -One Top Sheet 270 cm x 290 cm -Two US Pillow Case 50 cm x 75cm,OLIVE/CH/SS/K,,,,,,0,1,0,Sheet Set K T300 2 Line Hem Stitch Charcoal -One Fitted Sheet 180 cm x 200 cm -One Top Sheet 270 cm x 290 cm -Two US Pillow Case 50 cm x 75cm
OLIVE/CH/SS/Q,3530237,code128,ENSO,101,115,790,2,VAT @5%,exclusive,,107,Sheet Set|Q|T300 2 Line Hem Stitch Charcoal|-One Fitted Sheet 180 cm x 200 cm -One Top Sheet 270 cm x 290 cm -Two US Pillow Case 50 cm x 75cm,OLIVE/CH/SS/Q,,,,,,0,1,0,Sheet Set Q T300 2 Line Hem Stitch Charcoal -One Fitted Sheet 180 cm x 200 cm -One Top Sheet 270 cm x 290 cm -Two US Pillow Case 50 cm x 75cm
OLIVE/CH/SS/F,3530238,code128,ENSO,101,75,525,2,VAT @5%,exclusive,,107,Sheet Set|F|T300 2 Line Hem Stitch Charcoal|-One Fitted Sheet 180 cm x 200 cm -One Top Sheet 270 cm x 290 cm -Two US Pillow Case 50 cm x 75cm,OLIVE/CH/SS/F,,,,,,0,1,0,Sheet Set F T300 2 Line Hem Stitch Charcoal -One Fitted Sheet 180 cm x 200 cm -One Top Sheet 270 cm x 290 cm -Two US Pillow Case 50 cm x 75cm
OLIVE/CH/SS/S,3530239,code128,ENSO,101,10,85,2,VAT @5%,exclusive,,107,Sheet Set|S|T300 2 Line Hem Stitch Charcoal|-One Fitted Sheet 100 cm x 200 cm -One Top Sheet -One US Pillow Case 50 cm x 75cm,OLIVE/CH/SS/S,,,,,,0,1,0,Sheet Set S T300 2 Line Hem Stitch Charcoal -One Fitted Sheet 100 cm x 200 cm -One Top Sheet -One US Pillow Case 50 cm x 75cm
OLIVE/CH/DC/SK-K,3530240,code128,ENSO,101,95,745,2,VAT @5%,exclusive,,102,Duvet Cover|SK-K|T300 2 Line Hem Stitch Charcoal|260 x 230,OLIVE/CH/DC/SK-K,,,,,,0,1,0,Duvet Cover SK-K T300 2 Line Hem Stitch Charcoal 260 x 230
OLIVE/CH/DC/Q-F,3530241,code128,ENSO,101,115,920,2,VAT @5%,exclusive,,102,Duvet Cover|Q-F|T300 2 Line Hem Stitch Charcoal|220 x 230,OLIVE/CH/DC/Q-F,,,,,,0,1,0,Duvet Cover Q-F T300 2 Line Hem Stitch Charcoal 220 x 230
OLIVE/CH/TS/SK-K,3530242,code128,ENSO,101,60,490,2,VAT @5%,exclusive,,106,Top Sheet|SK-K|T300 2 Line Hem Stitch Charcoal|270 x 290,OLIVE/CH/TS/SK-K,,,,,,0,1,0,Top Sheet SK-K T300 2 Line Hem Stitch Charcoal 270 x 290
OLIVE/CH/TS/Q-F,3530243,code128,ENSO,101,50,410,2,VAT @5%,exclusive,,106,Top Sheet|Q-F|T300 2 Line Hem Stitch Charcoal|220 x 290,OLIVE/CH/TS/Q-F,,,,,,0,1,0,Top Sheet Q-F T300 2 Line Hem Stitch Charcoal 220 x 290
OLIVE/CH/FS/SK,3530244,code128,ENSO,101,45,350,2,VAT @5%,exclusive,,106,Fitted Sheet|SK|T300 2 Line Hem Stitch Charcoal|200 x 200+36,OLIVE/CH/FS/SK,,,,,,0,1,0,Fitted Sheet SK T300 2 Line Hem Stitch Charcoal 200 x 200+36
OLIVE/CH/FS/K,3530245,code128,ENSO,101,40,325,2,VAT @5%,exclusive,,106,Fitted Sheet|K|T300 2 Line Hem Stitch Charcoal|180 x 200+36,OLIVE/CH/FS/K,,,,,,0,1,0,Fitted Sheet K T300 2 Line Hem Stitch Charcoal 180 x 200+36
OLIVE/CH/FS/Q,3530246,code128,ENSO,101,35,300,2,VAT @5%,exclusive,,106,Fitted Sheet|Q|T300 2 Line Hem Stitch Charcoal|160 x 200 + 30,OLIVE/CH/FS/Q,,,,,,0,1,0,Fitted Sheet Q T300 2 Line Hem Stitch Charcoal 160 x 200 + 30
OLIVE/CH/OPC/K,3530247,code128,ENSO,101,20,155,2,VAT @5%,exclusive,,106,Pillow Case Oxford|K|T300 2 Line Hem Stitch Charcoal|50 x 90,OLIVE/CH/OPC/K,,,,,,0,1,0,Pillow Case Oxford K T300 2 Line Hem Stitch Charcoal 50 x 90
OLIVE/CH/OPC/S,3530248,code128,ENSO,101,20,155,2,VAT @5%,exclusive,,106,Pillow Case Oxford|S|T300 2 Line Hem Stitch Charcoal|50 x 75,OLIVE/CH/OPC/S,,,,,,0,1,0,Pillow Case Oxford S T300 2 Line Hem Stitch Charcoal 50 x 75
OLIVE/CH/UPC/K,3530249,code128,ENSO,101,10,95,2,VAT @5%,exclusive,,106,Pillow Case US|K|T300 2 Line Hem Stitch Charcoal|50 x 90,OLIVE/CH/UPC/K,,,,,,0,1,0,Pillow Case US K T300 2 Line Hem Stitch Charcoal 50 x 90
OLIVE/CH/UPC/S,3530250,code128,ENSO,101,10,95,2,VAT @5%,exclusive,,106,Pillow Case US|S|T300 2 Line Hem Stitch Charcoal|50 x 75,OLIVE/CH/UPC/S,,,,,,0,1,0,Pillow Case US S T300 2 Line Hem Stitch Charcoal 50 x 75
BONSAI/WT/DS/SK-K,3530251,code128,ENSO,101,135,935,2,VAT @5%,exclusive,,107,Duvet Set|SK-K|T400 2 Line Hem Stitch White|-One Duvet Cover 260 cm x 230 cm -Two Oxfor Pillow Case 50 cm x 75cm,BONSAI/WT/DS/SK-K,,,,,,0,1,0,Duvet Set SK-K T400 2 Line Hem Stitch White -One Duvet Cover 260 cm x 230 cm -Two Oxfor Pillow Case 50 cm x 75cm
BONSAI/WT/DS/Q-F,3530252,code128,ENSO,101,115,820,2,VAT @5%,exclusive,,107,Duvet Set|Q-F|T400 2 Line Hem Stitch White|-One Duvet Cover 260 cm x 230 cm -Two Oxfor Pillow Case 50 cm x 75cm,BONSAI/WT/DS/Q-F,,,,,,0,1,0,Duvet Set Q-F T400 2 Line Hem Stitch White -One Duvet Cover 260 cm x 230 cm -Two Oxfor Pillow Case 50 cm x 75cm
BONSAI/WT/DS/S,3530253,code128,ENSO,101,20,140,2,VAT @5%,exclusive,,107,Duvet Set|S|T400 2 Line Hem Stitch White|-One Duvet Cover 160 cm x 230 cm -One Oxfor Pillow Case 50 cm x 75cm,BONSAI/WT/DS/S,,,,,,0,1,0,Duvet Set S T400 2 Line Hem Stitch White -One Duvet Cover 160 cm x 230 cm -One Oxfor Pillow Case 50 cm x 75cm
BONSAI/WT/SS/SK,3530254,code128,ENSO,101,130,905,2,VAT @5%,exclusive,,107,Sheet Set|SK|T400 2 Line Hem Stitch White|-One Fitted Sheet 180 cm x 200 cm -One Top Sheet 270 cm x 290 cm -Two US Pillow Case 50 cm x 75cm,BONSAI/WT/SS/SK,,,,,,0,1,0,Sheet Set SK T400 2 Line Hem Stitch White -One Fitted Sheet 180 cm x 200 cm -One Top Sheet 270 cm x 290 cm -Two US Pillow Case 50 cm x 75cm
BONSAI/WT/SS/K,3530255,code128,ENSO,101,125,880,2,VAT @5%,exclusive,,107,Sheet Set|K|T400 2 Line Hem Stitch White|-One Fitted Sheet 180 cm x 200 cm -One Top Sheet 270 cm x 290 cm -Two US Pillow Case 50 cm x 75cm,BONSAI/WT/SS/K,,,,,,0,1,0,Sheet Set K T400 2 Line Hem Stitch White -One Fitted Sheet 180 cm x 200 cm -One Top Sheet 270 cm x 290 cm -Two US Pillow Case 50 cm x 75cm
BONSAI/WT/SS/Q,3530256,code128,ENSO,101,115,800,2,VAT @5%,exclusive,,107,Sheet Set|Q|T400 2 Line Hem Stitch White|-One Fitted Sheet 180 cm x 200 cm -One Top Sheet 270 cm x 290 cm -Two US Pillow Case 50 cm x 75cm,BONSAI/WT/SS/Q,,,,,,0,1,0,Sheet Set Q T400 2 Line Hem Stitch White -One Fitted Sheet 180 cm x 200 cm -One Top Sheet 270 cm x 290 cm -Two US Pillow Case 50 cm x 75cm
BONSAI/WT/SS/F,3530257,code128,ENSO,101,75,535,2,VAT @5%,exclusive,,107,Sheet Set|F|T400 2 Line Hem Stitch White|-One Fitted Sheet 180 cm x 200 cm -One Top Sheet 270 cm x 290 cm -Two US Pillow Case 50 cm x 75cm,BONSAI/WT/SS/F,,,,,,0,1,0,Sheet Set F T400 2 Line Hem Stitch White -One Fitted Sheet 180 cm x 200 cm -One Top Sheet 270 cm x 290 cm -Two US Pillow Case 50 cm x 75cm
BONSAI/WT/SS/S,3530258,code128,ENSO,101,10,85,2,VAT @5%,exclusive,,107,Sheet Set|S|T400 2 Line Hem Stitch White|-One Fitted Sheet 100 cm x 200 cm -One Top Sheet -One US Pillow Case 50 cm x 75cm,BONSAI/WT/SS/S,,,,,,0,1,0,Sheet Set S T400 2 Line Hem Stitch White -One Fitted Sheet 100 cm x 200 cm -One Top Sheet -One US Pillow Case 50 cm x 75cm
BONSAI/WT/DC/SK-K,3530259,code128,ENSO,101,95,755,2,VAT @5%,exclusive,,102,Duvet Cover|SK-K|T400 2 Line Hem Stitch White|260 x 230,BONSAI/WT/DC/SK-K,,,,,,0,1,0,Duvet Cover SK-K T400 2 Line Hem Stitch White 260 x 230
BONSAI/WT/DC/Q-F,3530260,code128,ENSO,101,80,620,2,VAT @5%,exclusive,,102,Duvet Cover|Q-F|T400 2 Line Hem Stitch White|220 x 230,BONSAI/WT/DC/Q-F,,,,,,0,1,0,Duvet Cover Q-F T400 2 Line Hem Stitch White 220 x 230
BONSAI/WT/TS/SK-K,3530261,code128,ENSO,101,60,485,2,VAT @5%,exclusive,,106,Top Sheet|SK-K|T400 2 Line Hem Stitch White|270 x 290,BONSAI/WT/TS/SK-K,,,,,,0,1,0,Top Sheet SK-K T400 2 Line Hem Stitch White 270 x 290
BONSAI/WT/TS/Q-F,3530262,code128,ENSO,101,50,415,2,VAT @5%,exclusive,,106,Top Sheet|Q-F|T400 2 Line Hem Stitch White|220 x 290,BONSAI/WT/TS/Q-F,,,,,,0,1,0,Top Sheet Q-F T400 2 Line Hem Stitch White 220 x 290
BONSAI/WT/FS/SK,3530263,code128,ENSO,101,45,355,2,VAT @5%,exclusive,,106,Fitted Sheet|SK|T400 2 Line Hem Stitch White|200 x 200+37,BONSAI/WT/FS/SK,,,,,,0,1,0,Fitted Sheet SK T400 2 Line Hem Stitch White 200 x 200+37
BONSAI/WT/FS/K,3530264,code128,ENSO,101,40,330,2,VAT @5%,exclusive,,106,Fitted Sheet|K|T400 2 Line Hem Stitch White|180 x 200+37,BONSAI/WT/FS/K,,,,,,0,1,0,Fitted Sheet K T400 2 Line Hem Stitch White 180 x 200+37
BONSAI/WT/FS/Q,3530265,code128,ENSO,101,40,305,2,VAT @5%,exclusive,,106,Fitted Sheet|Q|T400 2 Line Hem Stitch White|160 x 200 + 30,BONSAI/WT/FS/Q,,,,,,0,1,0,Fitted Sheet Q T400 2 Line Hem Stitch White 160 x 200 + 30
BONSAI/WT/OPC/K,3530266,code128,ENSO,101,20,155,2,VAT @5%,exclusive,,106,Pillow Case Oxford|K|T400 2 Line Hem Stitch White|50 x 90,BONSAI/WT/OPC/K,,,,,,0,1,0,Pillow Case Oxford K T400 2 Line Hem Stitch White 50 x 90
BONSAI/WT/OPC/S,3530267,code128,ENSO,101,20,155,2,VAT @5%,exclusive,,106,Pillow Case Oxford|S|T400 2 Line Hem Stitch White|50 x 75,BONSAI/WT/OPC/S,,,,,,0,1,0,Pillow Case Oxford S T400 2 Line Hem Stitch White 50 x 75
BONSAI/WT/UPC/K,3530268,code128,ENSO,101,10,95,2,VAT @5%,exclusive,,106,Pillow Case US|K|T400 2 Line Hem Stitch White|50 x 90,BONSAI/WT/UPC/K,,,,,,0,1,0,Pillow Case US K T400 2 Line Hem Stitch White 50 x 90
BONSAI/WT/UPC/S,3530269,code128,ENSO,101,10,95,2,VAT @5%,exclusive,,106,Pillow Case US|S|T400 2 Line Hem Stitch White|50 x 75,BONSAI/WT/UPC/S,,,,,,0,1,0,Pillow Case US S T400 2 Line Hem Stitch White 50 x 75
WILLOW/WT/DC/SK-K,3530270,code128,ENSO,101,75,555,2,VAT @5%,exclusive,,102,Duvet Cover|SK-K|T400 Tuxedo Stripe White|260 x 230,WILLOW/WT/DC/SK-K,,,,,,0,1,0,Duvet Cover SK-K T400 Tuxedo Stripe White 260 x 230
WILLOW/WT/TS/SK-K,3530271,code128,ENSO,101,50,365,2,VAT @5%,exclusive,,106,Top Sheet|SK-K|T400 Tuxedo Stripe White|270 x 290,WILLOW/WT/TS/SK-K,,,,,,0,1,0,Top Sheet SK-K T400 Tuxedo Stripe White 270 x 290
WILLOW/WT/FS/SK,3530272,code128,ENSO,101,40,310,2,VAT @5%,exclusive,,106,Fitted Sheet|SK|T400 Tuxedo Stripe White|200 x 200+37,WILLOW/WT/FS/SK,,,,,,0,1,0,Fitted Sheet SK T400 Tuxedo Stripe White 200 x 200+37
WILLOW/WT/FS/K,3530273,code128,ENSO,101,40,290,2,VAT @5%,exclusive,,106,Fitted Sheet|K|T400 Tuxedo Stripe White|180 x 200+37,WILLOW/WT/FS/K,,,,,,0,1,0,Fitted Sheet K T400 Tuxedo Stripe White 180 x 200+37
WILLOW/WT/OPC/K,3530274,code128,ENSO,101,10,60,2,VAT @5%,exclusive,,106,Pillow Case Oxford|K|T400 Tuxedo Stripe White|50 x 90,WILLOW/WT/OPC/K,,,,,,0,1,0,Pillow Case Oxford K T400 Tuxedo Stripe White 50 x 90
WILLOW/WT/UPC/K,3530275,code128,ENSO,101,5,55,2,VAT @5%,exclusive,,106,Pillow Case US|K|T400 Tuxedo Stripe White|50 x 90,WILLOW/WT/UPC/K,,,,,,0,1,0,Pillow Case US K T400 Tuxedo Stripe White 50 x 90
TUSA/WT/BT,3530276,code128,ENSO,102,30,230,2,VAT @5%,exclusive,,108,Bath Towel|Jacquard dobby border|100 x 170,TUSA/WT/BT,,,,,,0,1,0,Bath Towel Jacquard dobby border 100 cm x 170 cm
TUSA/WT/HT,3530277,code128,ENSO,102,5,50,2,VAT @5%,exclusive,,108,Hand Towel|Jacquard dobby border|40 x 60,TUSA/WT/HT,,,,,,0,1,0,Hand Towel Jacquard dobby border 40 cm x 60 cm
TUSA/WT/FT,3530278,code128,ENSO,102,0,0,2,VAT @5%,exclusive,,108,Face Towel|Jacquard dobby border|32 x 32,TUSA/WT/FT,,,,,,0,1,0,Face Towel Jacquard dobby border 32 cm x 32 cm
TUSA/WT/BM,3530279,code128,ENSO,102,10,75,2,VAT @5%,exclusive,,110,Bath Mat|Jacquard dobby border|50 x 80,TUSA/WT/BM,,,,,,0,1,0,Bath Mat Jacquard dobby border 50 cm x 80 cm
KENAF/WT/BT,3530280,code128,ENSO,102,45,340,2,VAT @5%,exclusive,,108,Bath Towel|Stripe Enbroidery|80 x 160,KENAF/WT/BT,,,,,,0,1,0,Bath Towel Stripe Enbroidery 80 cm x 160 cm
KENAF/WT/HT,3530281,code128,ENSO,102,10,100,2,VAT @5%,exclusive,,108,Hand Towel|Stripe Enbroidery|40 x 60,KENAF/WT/HT,,,,,,0,1,0,Hand Towel Stripe Enbroidery 40 cm x 60 cm
KENAF/WT/FT,3530282,code128,ENSO,102,5,50,2,VAT @5%,exclusive,,108,Face Towel|Stripe Enbroidery|30 x 30,KENAF/WT/FT,,,,,,0,1,0,Face Towel Stripe Enbroidery 30 cm x 30 cm
KENAF/WT/BM,3530283,code128,ENSO,102,25,190,2,VAT @5%,exclusive,,110,Bath Mat|Stripe Enbroidery|50 x 80,KENAF/WT/BM,,,,,,0,1,0,Bath Mat Stripe Enbroidery 50 cm x 80 cm
OSO/WT/S,3530284,code128,ENSO,102,45,340,2,VAT @5%,exclusive,,111,"Bathrobe|Terry Shawl Collar, Colour piping around|S: 21""(SI) x 18""(S/s) x 47"" (L) x 49"" (G)",OSO/WT/S,,,,,,0,1,0,"Bathrobe Terry Shawl Collar, Colour piping around S: 21""(SI) x 18""(S/s) x 47"" (L) x 49"" (G)"
OSO/WT/M,3530285,code128,ENSO,102,45,340,2,VAT @5%,exclusive,,111,"Bathrobe|Terry Shawl Collar, Colour piping around|M: 23""(SI) x 22""(S/s) x 49"" (L) x 56"" (G)",OSO/WT/M,,,,,,0,1,0,"Bathrobe Terry Shawl Collar, Colour piping around M: 23""(SI) x 22""(S/s) x 49"" (L) x 56"" (G)"
OSO/WT/L,3530286,code128,ENSO,102,45,340,2,VAT @5%,exclusive,,111,"Bathrobe|Terry Shawl Collar, Colour piping around|L: 24""(SI) x 24""(S/s) x 51"" (L) x 52"" (G)",OSO/WT/L,,,,,,0,1,0,"Bathrobe Terry Shawl Collar, Colour piping around L: 24""(SI) x 24""(S/s) x 51"" (L) x 52"" (G)"
NUBE/WT/S,3530287,code128,ENSO,102,50,380,2,VAT @5%,exclusive,,111,"Bathrobe|Velour Shawl Collar|S: 21""(SI) x 18""(S/s) x 47"" (L) x 49"" (G)",NUBE/WT/S,,,,,,0,1,0,"Bathrobe Velour Shawl Collar S: 21""(SI) x 18""(S/s) x 47"" (L) x 49"" (G)"
NUBE/WT/M,3530288,code128,ENSO,102,50,380,2,VAT @5%,exclusive,,111,"Bathrobe|Velour Shawl Collar|M: 23""(SI) x 22""(S/s) x 49"" (L) x 56"" (G)",NUBE/WT/M,,,,,,0,1,0,"Bathrobe Velour Shawl Collar M: 23""(SI) x 22""(S/s) x 49"" (L) x 56"" (G)"
NUBE/WT/L,3530289,code128,ENSO,102,50,380,2,VAT @5%,exclusive,,111,"Bathrobe|Velour Shawl Collar|L: 24""(SI) x 24""(S/s) x 51"" (L) x 52"" (G)",NUBE/WT/L,,,,,,0,1,0,"Bathrobe Velour Shawl Collar L: 24""(SI) x 24""(S/s) x 51"" (L) x 52"" (G)"
TUSA/WT/TOWELSET,3530290,code128,ENSO,102,40,255,2,VAT @5%,exclusive,,109,Towel Set|Jacquard dobby border,TUSA/WT/TOWELSET,,,,,,0,1,0,Towel Set -One Bath Towel 100 cm x 170 cm -One Hand Towel 40 cm x 60 cm -Two Face Towel 32 cm x 32 cm
KENAF/WT/TOWELSET,3530291,code128,ENSO,102,65,440,2,VAT @5%,exclusive,,109,Towel Set|Stripe Enbroidery,KENAF/WT/TOWELSET,,,,,,0,1,0,Towel Set -One Bath Towel 80 cm x 160 cm -One Hand Towel 40 cm x 60 cm -Two Face Towel 30 cm x 30 cm
TUSA/WT/BATHSET,3530292,code128,ENSO,102,50,306,2,VAT @5%,exclusive,,109,Bath Set|Jacquard dobby border,TUSA/WT/BATHSET,,,,,,0,1,0,Bath Set -One Bath Towel 100 cm x 170 cm -One Hand Towel 40 cm x 60 cm -Two Face Towel 32 cm x 32 cm -One Bath Mat 50 cm x 80 cm
KENAF/WT/BATHSET,3530293,code128,ENSO,102,90,555,2,VAT @5%,exclusive,,109,Bath Set|Stripe Enbroidery,KENAF/WT/BATHSET,,,,,,0,1,0,Bath Set -One Bath Towel 80 cm x 160 cm -One Hand Towel 40 cm x 60 cm -Two Face Towel 30 cm x 30 cm - One Bath Mat 50 cm x 80 cm
